id,email,phone_no,zip,number_of_ticket_transactions,number_of_retail_transactions,number_of_survey_responses,games_attended,back_office_spend,box_office_spend,web_spend,total_ticket_spend,total_retail_spend(excl. shipping),total_spend(excl. shipping),future_attendance_likelihood(avg),unique_product_types_ordered
5199f917382bbf7540aa5b1b941f0dfa2b903aa43eee03f47cb6bc791a81d3d1,user9@supersonics.com,200-255-6033,78140,19,2.0,6.0,16,2110.0,4450.0,3755.0,10315,277.0,10592.0,2.1666666666666665,"['Jersey', 'T-shirt']"
01fdb7ae7e2efa933d716797b4b1759805d40391e00866d064d0f757d90c499c,user373@supersonics.com,201-727-1255,77004,15,3.0,2.0,14,2420.0,3520.0,1670.0,7610,231.0,7841.0,4.0,"['Misc', 'T-shirt', 'Hat']"
7720ad40c5dc58428599c4509df1ef0011b0eea3697f5e432d48dbba577349d4,user174@supersonics.com,202-682-5364,78220,20,7.0,7.0,14,650.0,3080.0,2740.0,6470,946.0,7416.0,3.142857142857143,"['Hat', 'Misc', 'T-shirt', 'Jersey']"
0620708e4ca3f898670d4157b38e9446b3f1f455ca4aa090a390cb3e64e4a9f6,user494@supersonics.com,203-796-1129,78610,17,7.0,8.0,16,4370.0,1475.0,2170.0,8015,531.0,8546.0,3.0,"['T-shirt', 'Misc', 'Hat', 'Jersey']"
ad7bdf73d5b5a7cc77c3398c44d155d0fbe83e259809610c71dd97438d621b00,user207@supersonics.com,206-842-6958,75236,32,2.0,4.0,21,1305.0,5675.0,6690.0,13670,422.0,14092.0,3.5,"['T-shirt', 'Jersey']"
5c03a082bfd30935d86657e16a2d2500bba0c8ed71f43fd6be7629002c904f36,user319@supersonics.com,206-848-8509,77406,24,4.0,1.0,18,5685.0,2775.0,4405.0,12865,321.0,13186.0,1.0,"['Jersey', 'Misc', 'Hat']"
0136b8bdf4da6ff4d6356dd46cc972ba828df2696c386d579d4cd3a3d693eb70,user259@supersonics.com,208-486-3079,78608,18,4.0,5.0,15,1805.0,1440.0,3165.0,6410,257.0,6667.0,3.2,"['T-shirt', 'Misc']"
2f87ed575ae65d60c0e00101e77be82d6d507bd485b0a16e53ee40707fc4ca94,user201@supersonics.com,209-605-6143,77396,19,4.0,3.0,14,3885.0,3650.0,3600.0,11135,652.0,11787.0,2.6666666666666665,"['Jersey', 'T-shirt', 'Misc']"
d25251d2f5dc48fffcb2f2383e7ba0dfc920df94466638c67d001d4588f8e795,user265@supersonics.com,210-311-8926,78254,15,4.0,1.0,14,115.0,1575.0,4975.0,6665,259.0,6924.0,3.0,"['Misc', 'T-shirt', 'Jersey', 'Hat']"
c7c07eb24fa3e8c3c749f2197f2fb058f8ed2513d968c5a78c99a8a1d9cb0ebf,user173@supersonics.com,210-779-8777,77726,21,3.0,4.0,18,3840.0,3655.0,3035.0,10530,256.0,10786.0,2.25,"['T-shirt', 'Hat']"
adf19315ead4a03c0a05efd1a4499638a68676b4bdea4ed27a00904839b072f3,user240@supersonics.com,212-217-8267,75599,18,5.0,1.0,14,1450.0,3690.0,2840.0,7980,884.0,8864.0,1.0,"['T-shirt', 'Misc', 'Jersey']"
67ac9938de44ebc1552033279c1b4c785d5ad78b562736979c04ed4e21722ce7,user325@supersonics.com,219-163-3993,77052,24,5.0,2.0,17,1380.0,6670.0,5720.0,13770,299.0,14069.0,2.0,"['Misc', 'T-shirt']"
3c29ef6e1ddefd08e1463ea9f13fddddc8d60a2db2299160b7e0ba1a473092f2,user49@supersonics.com,219-685-5588,75853,20,3.0,4.0,17,1725.0,3150.0,3675.0,8550,211.0,8761.0,1.75,"['T-shirt', 'Misc']"
00905ed47a864692bfb1e22f49b4fde8cc023f6153c657ea47ee6d2853c50863,user278@supersonics.com,223-415-3925,75048,18,9.0,5.0,13,4070.0,1400.0,2030.0,7500,998.0,8498.0,2.2,"['T-shirt', 'Jersey', 'Hat', 'Misc']"
477c512a6d4d6ad73d2e353b9c559bf5f1420d9ca7680de42762284fc5c29074,user79@supersonics.com,225-515-4476,75558,23,3.0,2.0,19,3340.0,5280.0,2040.0,10660,384.0,11044.0,5.0,"['Jersey', 'Misc']"
7960f3fbcbcbb0fad60f09a2b2d94c7d670c7eff757c279c70e2f0413cb34215,user183@supersonics.com,225-517-6155,76513,27,4.0,4.0,15,5870.0,3850.0,3650.0,13370,321.0,13691.0,1.5,"['T-shirt', 'Hat']"
90b5a59f0b2a70d988f81c71db4aa844a797572dbe40874c957e0dea19c18990,user101@supersonics.com,226-568-7645,77388,24,4.0,5.0,19,4290.0,6320.0,2730.0,13340,556.0,13896.0,3.4,"['Jersey', 'T-shirt', 'Hat']"
fa02ff250e706eda350156133acd52f2c66afd061674ef048894192f909f6f67,user54@supersonics.com,228-488-8947,75124,17,6.0,8.0,13,2480.0,1960.0,320.0,4760,370.0,5130.0,3.375,"['Hat', 'T-shirt', 'Misc']"
fef10e18f357293878664f1631e403f8165deb68b46f29e72849ba8e7ce11eaa,user119@supersonics.com,228-849-7850,75490,13,7.0,3.0,12,2130.0,4225.0,840.0,7195,1256.0,8451.0,1.3333333333333333,"['Jersey', 'T-shirt', 'Misc']"
78d9d4fb9995f3f50d05f5d79758bd5518715190770dbf7cc0b1b7040c3c4c43,user393@supersonics.com,231-278-8272,77051,17,3.0,3.0,14,3040.0,2225.0,2750.0,8015,249.0,8264.0,2.6666666666666665,"['Misc', 'Hat']"
bc4e2c146d2cb8aaf23b531a08f9c87220055d4df17d5a24967662efb75c5924,user379@supersonics.com,231-757-6010,75057,25,1.0,6.0,20,1675.0,770.0,4920.0,7365,40.0,7405.0,1.6666666666666667,['Misc']
613ebc99456fdbcb85fe95d176b839e1bd2890800ffc9c78763b0ccc69990b5f,user469@supersonics.com,234-770-4463,77004,23,5.0,5.0,17,2680.0,2455.0,2660.0,7795,714.0,8509.0,3.8,"['T-shirt', 'Hat', 'Jersey']"
69e1d7076b65e297c0b7337441d601ecba877b53ae149aaa744325300c6656b5,user462@supersonics.com,237-748-3824,77201,19,3.0,6.0,16,940.0,4130.0,3875.0,8945,634.0,9579.0,3.0,"['Jersey', 'Hat']"
16266061c5a5084e432ed88e10875bb16735cf15d9cf81e9815a9947ebf3ff40,user87@supersonics.com,238-199-2712,77584,22,5.0,2.0,20,4405.0,3355.0,3250.0,11010,254.0,11264.0,3.0,"['Misc', 'T-shirt']"
f4a673f1c6d95d2612c300edc1dfded7ef8ed650e1183b095d47306c4e3504db,user291@supersonics.com,240-146-2284,77492,20,4.0,1.0,18,4130.0,3835.0,1275.0,9240,218.0,9458.0,3.0,"['Hat', 'T-shirt']"
c589c0d122e8b8245d3ae5442675a3e22448bd178fb9814c6ab59195703045b7,user98@supersonics.com,244-805-9413,77031,20,1.0,1.0,18,345.0,5880.0,3545.0,9770,54.0,9824.0,4.0,['Hat']
aa04a5d5b20b4d6f8ecb5f754a1c48c2b045e22a35d2bc2ca64e1a0c755bebd5,user194@supersonics.com,246-253-6167,77469,24,3.0,2.0,19,5875.0,3470.0,2910.0,12255,158.0,12413.0,2.5,"['T-shirt', 'Misc', 'Hat']"
41815c5b0f87bea449673962de09be0989011d6fbad2cda64d13dc36041390a0,user156@supersonics.com,247-278-9416,77024,20,5.0,2.0,13,2320.0,4080.0,1820.0,8220,676.0,8896.0,4.0,"['T-shirt', 'Hat', 'Jersey', 'Misc']"
95e4b7fc6525d76956e1bd9a0120211a76992455b8d78b750bf5ad7b0f10638e,user460@supersonics.com,249-250-3439,76799,15,1.0,2.0,14,2570.0,1325.0,1520.0,5415,30.0,5445.0,2.5,['Hat']
cb4b26dce3ce54b866f0062c127b8a369cd9edd9500187a2ef1941966200eb85,user450@supersonics.com,249-949-3552,77388,19,3.0,1.0,17,5190.0,620.0,3275.0,9085,271.0,9356.0,4.0,"['Jersey', 'Hat']"
3f5f4912e51726453ab4e329d832ae8c29f0c08ce7f9bce4a017935e846f57bb,user39@supersonics.com,251-535-8728,75685,18,6.0,6.0,15,3200.0,440.0,2925.0,6565,391.0,6956.0,2.0,"['Hat', 'Misc', 'T-shirt']"
5b294e2e393fcc30a5a5b5e7f1cbb246c8c217480b172553de2ce54ba6d1f51d,user391@supersonics.com,252-878-3695,38587,17,1.0,3.0,12,3550.0,2620.0,1400.0,7570,72.0,7642.0,3.0,['Misc']
dd148082e74dd1377e06622e982c666903a85ce9fd363c489fa2b367c980ddbe,user343@supersonics.com,255-826-9007,77011,17,2.0,4.0,12,185.0,4565.0,1430.0,6180,281.0,6461.0,3.25,['Jersey']
e192e9d553a4b8d58c3a61842c26008905a2f864811dce7ea22fc8268cd5d94d,user312@supersonics.com,260-607-1918,76569,23,4.0,3.0,17,2990.0,2950.0,6980.0,12920,444.0,13364.0,3.0,"['Jersey', 'T-shirt', 'Misc']"
f67f8c08538070f4e4311410d4a116a487318a6c65086f9312cc6a076450911c,user114@supersonics.com,261-252-7785,77096,27,1.0,4.0,17,3650.0,4770.0,4080.0,12500,80.0,12580.0,2.0,['T-shirt']
b49759b5e87c1a1ca55242d8360259d124ce4b510a6655c3dc4805fea28c9141,user443@supersonics.com,262-525-9282,77006,19,7.0,2.0,18,2735.0,1465.0,1810.0,6010,903.0,6913.0,2.5,"['Hat', 'T-shirt', 'Jersey']"
ece98fbefb2932a54bff8174a37b3eec5a27b08c23e8b89a3762860ac6c7d18e,user465@supersonics.com,262-544-8970,77472,21,3.0,2.0,17,5985.0,3810.0,1190.0,10985,316.0,11301.0,3.5,"['Hat', 'Jersey', 'T-shirt']"
2af69e133906300c60879ff69e0da06c752696f9dcb80e64586f56248537402e,user64@supersonics.com,263-383-7772,75491,22,5.0,2.0,18,1500.0,4310.0,2865.0,8675,274.0,8949.0,1.5,"['Misc', 'Hat', 'T-shirt']"
8f6e8d3060cad00b37e0fe212d8ae2d6416f34c31e6d2d6de676ea32d80b5512,user84@supersonics.com,263-981-3374,75065,29,3.0,6.0,23,6120.0,5530.0,3935.0,15585,360.0,15945.0,2.1666666666666665,"['Hat', 'Jersey', 'T-shirt']"
b7ef14e0b4df612ab02b06c2b36879b5fe85fe9ae709fc73842871fc418a2bfe,user481@supersonics.com,265-944-9980,77505,16,5.0,4.0,14,1645.0,2920.0,2260.0,6825,406.0,7231.0,1.0,"['Hat', 'Jersey', 'Misc']"
61b6849ea72900395acf1d34ffdc3b8fad837889540c57d946f72eecb5e058c9,user211@supersonics.com,266-256-6629,77022,11,3.0,3.0,11,2605.0,430.0,135.0,3170,612.0,3782.0,3.6666666666666665,"['Jersey', 'Misc', 'Hat']"
5f7d4d5e754128e87d3290d58b859dab4219e82c8a3f547aedae7963ce21aa28,user8@supersonics.com,270-950-4390,76828,33,3.0,3.0,24,6140.0,7290.0,4940.0,18370,329.0,18699.0,3.6666666666666665,"['Misc', 'Jersey']"
740eb6810befb523c7222af4abafb8afe01990ba8d58f05b70bbee424b0aff84,user45@supersonics.com,273-521-7807,77090,22,2.0,5.0,16,4855.0,3165.0,3240.0,11260,182.0,11442.0,3.0,"['Misc', 'Jersey']"
6067ad5ad846ac70658ecbc5fcfa4a87dcd773c58c758640c26bef653d9807c5,user28@supersonics.com,273-879-6705,76715,13,6.0,2.0,12,1280.0,395.0,975.0,2650,570.0,3220.0,3.0,"['Jersey', 'T-shirt', 'Hat']"
8094480e7f98a8a119cf69d4bb7b9dc3bd59980384fbab539dfdd49d8a7bd695,user399@supersonics.com,274-769-9157,75086,26,3.0,3.0,19,8400.0,3950.0,1965.0,14315,281.0,14596.0,4.0,"['Misc', 'T-shirt']"
6a5c2f2f7b8934ab99b5c7321af99983f2530e21af0b7f9e0d07a65fbe5e22ce,user21@supersonics.com,276-299-4595,75017,20,0.0,2.0,15,3180.0,3430.0,2060.0,8670,0.0,8670.0,3.0,
e4505833fab229472947a99961ef2c92d18233331ee46d856362eb9e986594aa,user267@supersonics.com,277-837-8155,75019,22,5.0,2.0,17,3530.0,3810.0,2830.0,10170,744.0,10914.0,2.5,"['T-shirt', 'Jersey', 'Hat', 'Misc']"
f84a18a857d928fedd4067805afe953aae47f11ac6f45219bb23059974080b90,user363@supersonics.com,278-103-1848,75115,31,3.0,1.0,23,5460.0,3660.0,2770.0,11890,148.0,12038.0,4.0,['Hat']
346d5f0ffe26f9be44da1658266084b4ee817662e09e261a21efe36e5e285ad8,user419@supersonics.com,279-976-7138,77088,16,0.0,3.0,13,1650.0,3620.0,635.0,5905,0.0,5905.0,3.3333333333333335,
d1479f54f42dbf27ddf22f6db9d61b8f759d9961689b5230099a16845683c752,user400@supersonics.com,280-379-5220,77066,12,5.0,5.0,11,3620.0,1175.0,1140.0,5935,816.0,6751.0,3.4,"['T-shirt', 'Hat', 'Jersey']"
a9986602b936e6cee2eeb2e380676b81d280d801f8fab8829f133685773595f0,user140@supersonics.com,280-518-7001,77469,19,4.0,1.0,16,2155.0,220.0,3790.0,6165,350.0,6515.0,1.0,"['Misc', 'T-shirt', 'Jersey', 'Hat']"
0af133bd19c8d37a9a395646f4a5e35c5e75215479c3bb392da0e92ee21c675e,user345@supersonics.com,282-294-7020,75573,25,2.0,6.0,22,5610.0,5270.0,1120.0,12000,427.0,12427.0,3.5,"['Misc', 'Jersey']"
fb1cb272ff998cfea6c36e9e88363bff56cc91095edf46937f3c7cc37eb0da37,user5@supersonics.com,284-205-8445,75563,16,3.0,2.0,13,3210.0,950.0,2400.0,6560,205.0,6765.0,5.0,"['Jersey', 'Hat']"
d405da42d322fe784cf6c95d24d7d1ba59bd739a39c132e6101fa74ecd5f9578,user161@supersonics.com,284-527-8150,76908,28,3.0,4.0,20,2870.0,3570.0,3615.0,10055,155.0,10210.0,2.75,['T-shirt']
64fecdf1bbea53aa70cbd0bd12c083fb3f7a53cdf367e94287349bb442875205,user23@supersonics.com,284-982-2425,76798,22,5.0,1.0,18,910.0,3840.0,3810.0,8560,240.0,8800.0,2.0,"['T-shirt', 'Misc']"
295323bdca7626b47977640f4faec7e2a6d31695e20a21ded189be613b11b215,user166@supersonics.com,285-463-2260,75236,15,4.0,2.0,10,1160.0,3970.0,2070.0,7200,317.0,7517.0,4.0,"['Hat', 'Jersey', 'Misc']"
6f13ed479fe1a620607b744f9be19a8c2377237fa22a62d70a3dd2717c006e95,user468@supersonics.com,286-242-7937,77015,21,4.0,2.0,16,3890.0,510.0,4450.0,8850,345.0,9195.0,3.5,"['Hat', 'Jersey']"
26ed89f4a2f9b280df6a23d6438276c5e7a53e41cb726317d6b2b8e8ded9ed9a,user50@supersonics.com,286-549-5999,76853,20,3.0,4.0,12,1320.0,3510.0,4295.0,9125,610.0,9735.0,2.75,"['Misc', 'Hat', 'Jersey']"
e74652db32618a83dd301a04a92d586678611630aae0d3f58aade1b579a0590f,user33@supersonics.com,287-227-2087,76426,21,3.0,4.0,18,3980.0,1075.0,4210.0,9265,172.0,9437.0,2.0,['Hat']
6ca05e17ec7c79c52efc98bc00220177d64d8bb6a0af7b9f7eaabb83ed631991,user115@supersonics.com,288-218-4095,77532,28,4.0,4.0,21,3760.0,6975.0,7055.0,17790,840.0,18630.0,2.75,"['Jersey', 'Hat', 'Misc']"
9a474ef78e43dc59aa4739e84da308fbe79303827761592e64afdf6d8ecda387,user495@supersonics.com,290-551-1299,76135,25,2.0,10.0,19,5585.0,4330.0,3885.0,13800,43.0,13843.0,2.8,"['Hat', 'Misc']"
d1c092303868b8da3f7eccca7c6457d929c9b8161d3e7c1a4abc065ccac3125e,user498@supersonics.com,291-238-1310,76799,15,5.0,3.0,13,3560.0,1250.0,695.0,5505,458.0,5963.0,3.3333333333333335,"['Hat', 'T-shirt', 'Jersey']"
b8a3937fc72a3b160b1bd969b2466e350e860ebb8b72f60767097a906f90bd7f,user446@supersonics.com,291-749-7251,77023,18,1.0,2.0,14,6230.0,1055.0,1565.0,8850,102.0,8952.0,4.0,['T-shirt']
6a7ffa431d427a881a236f1bce6e7885d1b020ed91f3c392bb0988c7a82ed820,user53@supersonics.com,291-825-1038,77045,29,3.0,3.0,20,3960.0,3835.0,5345.0,13140,310.0,13450.0,1.0,"['Hat', 'Jersey', 'T-shirt']"
2ae0dcebd04b343bae1f1daea4b73d572183365e1796688bc773d113ea0307e3,user422@supersonics.com,296-828-2786,77030,21,4.0,3.0,16,6030.0,3210.0,3345.0,12585,541.0,13126.0,3.0,"['Misc', 'Jersey']"
0f51c05b84b39a50c8799a9b6877dc29513d8d2c19062ce238ab74ceedbe1bfc,user272@supersonics.com,297-360-5964,78662,15,3.0,5.0,11,3240.0,2525.0,2240.0,8005,542.0,8547.0,3.4,"['Jersey', 'T-shirt', 'Hat']"
7adeb8e66f01ae3f51e1fe7a33e0f3be63390fd3efde37bbb9ec909bc1577cea,user493@supersonics.com,299-292-1853,77478,24,3.0,3.0,19,1765.0,6500.0,1315.0,9580,121.0,9701.0,4.0,"['Hat', 'Misc']"
28c53db116ee8e480b592146a37621683f2f12bb50f734835fa62ceeaa36f3f6,user466@supersonics.com,301-955-7552,77502,22,5.0,1.0,17,2650.0,6815.0,5545.0,15010,282.0,15292.0,4.0,"['Hat', 'Misc', 'T-shirt']"
652d2581d654cffce72a019f1bf1e9c594f8d1333448241c8aa7820d932d94ba,user76@supersonics.com,307-698-7498,75048,19,4.0,1.0,15,4945.0,2890.0,2460.0,10295,810.0,11105.0,1.0,"['Hat', 'Jersey']"
03a949310abe6c06b12cbe6cad1f90df5cd632bc61b45ce70b8cade5a3fff94e,user448@supersonics.com,307-892-9027,75301,13,2.0,3.0,11,2580.0,3650.0,1420.0,7650,662.0,8312.0,3.0,['Jersey']
c2a9f3fd42e8ab6f3a490a9970da893b31c5372bad460b4f5d15e41d001874b6,user229@supersonics.com,308-790-6858,77009,17,3.0,6.0,15,3610.0,3850.0,675.0,8135,265.0,8400.0,3.1666666666666665,"['Hat', 'Jersey', 'Misc']"
ba0f2754971d2271cb6539e00325f77245d113e100a0a95b4e989ac032085dea,user293@supersonics.com,308-886-8964,77070,33,2.0,2.0,21,5290.0,4685.0,4375.0,14350,244.0,14594.0,3.5,"['Jersey', 'Misc']"
d853fed6803040c206e67ad618db873661f6ed58160b1c107c6430b2b391a6c7,user263@supersonics.com,309-935-5143,75138,20,5.0,5.0,16,5590.0,2620.0,1970.0,10180,341.0,10521.0,2.2,"['Hat', 'T-shirt', 'Misc']"
33c9c5f7d7dd257cf6ac867e14ececb637a25302bedaf3631d29a13e6dcec03d,user382@supersonics.com,311-184-4684,77011,15,3.0,5.0,12,495.0,1215.0,4400.0,6110,681.0,6791.0,2.6,"['Jersey', 'Hat']"
2154f4b95d43a11084946ddd0122393fc31f79795900f1cf81a94973f776bdb0,user158@supersonics.com,311-187-9501,77726,15,2.0,2.0,12,905.0,3990.0,2190.0,7085,94.0,7179.0,2.0,"['T-shirt', 'Misc']"
5995d83fccf5d654be49d55494e7be9ab1b3d9c889df9b6de14c8cc414e6b6e7,user107@supersonics.com,316-305-1071,47970,18,7.0,4.0,17,4540.0,2400.0,2650.0,9590,419.0,10009.0,2.5,"['Hat', 'Misc', 'T-shirt']"
3a1a7b3a5a15f5967e820bb00b1310b43d96869812199ff7c6575e846ae54466,user457@supersonics.com,318-274-2105,75052,20,2.0,3.0,14,4315.0,2450.0,3325.0,10090,75.0,10165.0,2.6666666666666665,"['Hat', 'Misc']"
3e326d3899d1139a4195c9526aca57769b1c760cd7e83c49af6249cdf92bf3ac,user274@supersonics.com,318-642-1322,77079,22,6.0,4.0,17,3225.0,4620.0,3350.0,11195,1289.0,12484.0,2.25,"['T-shirt', 'Jersey', 'Misc']"
a05a9d1ef2c56c3f4ce3d2027218d7f2c52eb785bbcd277bcad1cbd4b70fde3a,user20@supersonics.com,320-336-6993,77581,26,8.0,1.0,17,7650.0,6150.0,2790.0,16590,1224.0,17814.0,2.0,"['Misc', 'T-shirt', 'Hat', 'Jersey']"
28e9f831d629836a43fd546eef5189a39a8e01b9cd128eede1409bbf151d7a81,user139@supersonics.com,321-116-1951,77338,22,7.0,2.0,17,3820.0,2640.0,3625.0,10085,928.0,11013.0,2.5,"['T-shirt', 'Misc', 'Jersey', 'Hat']"
6dbd813800d21ad0f322e60bcde02ece8db02f1f18987b9f7081920850e8fe81,user257@supersonics.com,325-414-3557,75146,28,8.0,3.0,19,2700.0,4075.0,2260.0,9035,760.0,9795.0,1.0,"['Misc', 'Hat', 'Jersey']"
1da200e144ec98f3933a95bae5fd31794704d8fe5c26195cd44cc332e9668bb9,user420@supersonics.com,326-172-8521,75125,24,4.0,3.0,19,3705.0,2200.0,4340.0,10245,514.0,10759.0,3.0,"['Hat', 'Jersey', 'T-shirt']"
5ba37d2b2a5fb01ff64b2c8740e5466b87ed277f256d8daf1afd1e5a03ff581b,user500@supersonics.com,327-236-1237,77061,19,2.0,3.0,17,1950.0,4085.0,3075.0,9110,479.0,9589.0,3.6666666666666665,"['T-shirt', 'Jersey']"
ab437d7c46048514249f1b3994eff265e4e93c71c7f8dc14f928f65452702262,user360@supersonics.com,328-958-2362,77068,21,3.0,4.0,14,2650.0,2340.0,3435.0,8425,195.0,8620.0,4.0,"['Misc', 'Hat']"
473a3cc0fe3558881fdfc54c21d7a8bd0c33747761dbdf1f8869ec33b92fc135,user189@supersonics.com,330-184-3046,76799,19,1.0,7.0,18,3185.0,2645.0,4240.0,10070,138.0,10208.0,3.142857142857143,['T-shirt']
c138d1a070859025594d5e99efa51db5229c7c688cee6f113ceb546e657fa79a,user362@supersonics.com,330-348-1012,75757,17,6.0,3.0,15,5475.0,950.0,860.0,7285,622.0,7907.0,4.0,"['T-shirt', 'Misc']"
61b50426b6a17e5cf5eda8c70f742a554638003cee875f4c62053633ad0e0037,user329@supersonics.com,331-192-2512,78640,29,6.0,2.0,18,4685.0,5430.0,2700.0,12815,849.0,13664.0,3.0,"['Hat', 'Jersey', 'Misc', 'T-shirt']"
ebada77b1de8a0aa43f9117ed83e0048e0cebfb3e16462b7dc67ecd576746079,user25@supersonics.com,331-231-6317,76526,16,1.0,6.0,12,3295.0,880.0,4150.0,8325,192.0,8517.0,2.5,['T-shirt']
4a09d1fa153e413d550347a5a9431fd4f1cfcd1222fac81c46efd2e085ac9e4e,user123@supersonics.com,333-347-8897,77057,21,4.0,1.0,17,3825.0,4245.0,2460.0,10530,283.0,10813.0,2.0,"['Misc', 'Hat']"
c8659f937c275f96f6da810f2aa4848c50bc24527f2cf99fd47b073e2b3b395d,user221@supersonics.com,333-936-5168,77836,20,8.0,3.0,14,4870.0,1500.0,2450.0,8820,417.0,9237.0,2.0,"['T-shirt', 'Misc', 'Jersey', 'Hat']"
aa2077c7ee1195c6224c308b8df17a686d0517d84541bd2dbda5178492878a67,user7@supersonics.com,334-368-5597,75493,16,4.0,6.0,12,1145.0,4840.0,1750.0,7735,401.0,8136.0,3.3333333333333335,"['T-shirt', 'Jersey', 'Misc']"
3f31c5c79a6e9cad86d66df724489933c65c0b831edacbd6127713148962777d,user124@supersonics.com,334-690-2216,76858,17,5.0,1.0,13,3030.0,1445.0,1065.0,5540,529.0,6069.0,1.0,"['Jersey', 'Misc', 'T-shirt', 'Hat']"
86ee5c9ce8bb319539174bf5ff88e7924bd08a9e902ad67acf1531d1cc67ca29,user321@supersonics.com,338-323-8116,76135,19,7.0,2.0,15,2160.0,3150.0,1805.0,7115,589.0,7704.0,3.0,"['T-shirt', 'Hat', 'Jersey', 'Misc']"
1cf6aba0f8b2bc3ad92a3a2206cc25ab270d94ebacc59ef07c4f792e8ca7e2f7,user397@supersonics.com,338-540-1022,75710,19,2.0,2.0,15,875.0,4380.0,2165.0,7420,204.0,7624.0,4.5,"['T-shirt', 'Hat']"
f8c5922591bcb2579ec7d9d0157847195321dcf4df2aabd421ca8d5f1491a2ea,user205@supersonics.com,339-477-6086,76472,15,5.0,1.0,14,2100.0,1950.0,2700.0,6750,822.0,7572.0,3.0,"['T-shirt', 'Hat', 'Jersey']"
f4d456a25a0b0c921c04a4d6235f91afb5d72f00b6cab670e3a71b0682dbab84,user428@supersonics.com,345-528-3952,75212,22,3.0,3.0,17,5955.0,900.0,1185.0,8040,147.0,8187.0,3.3333333333333335,"['Misc', 'Jersey']"
7e7679c0f54ba3a2149fbf541ab26f75d9b2010efacb1bcd48ea7cf985313cf2,user121@supersonics.com,346-278-4803,77870,24,4.0,2.0,18,2310.0,3045.0,3410.0,8765,518.0,9283.0,4.0,"['T-shirt', 'Jersey', 'Misc']"
e824527bfc0e3562735ff59d41668d8b133a5c99f682eea47fe703a9de296d40,user415@supersonics.com,349-734-3393,77006,17,3.0,2.0,13,3460.0,2650.0,3470.0,9580,264.0,9844.0,3.0,"['T-shirt', 'Jersey', 'Hat']"
eb680bc20850d836a1818a39987e0e0e1aef6cd465d927967f9c8336e2dd5364,user99@supersonics.com,350-217-4053,77503,23,2.0,5.0,19,2270.0,1710.0,3185.0,7165,576.0,7741.0,3.0,"['Hat', 'Jersey']"
352441e93f3350078fe37ca974b9e4e1cc49eb54d6b82833a198edaeffcd70fa,user186@supersonics.com,350-689-5516,75764,14,4.0,3.0,11,550.0,2000.0,560.0,3110,285.0,3395.0,3.3333333333333335,"['Hat', 'Misc']"
031f917e512b39544c9d32077858dfc3760c73a56e7be43e75217dad42369013,user322@supersonics.com,350-740-3984,77072,28,3.0,1.0,23,945.0,4325.0,4155.0,9425,298.0,9723.0,4.0,"['T-shirt', 'Misc']"
242879a90ca05f0c8bea48a240356e93212cac09b889fc2bcdb3a3ffd7baee49,user401@supersonics.com,353-923-7062,75551,27,5.0,2.0,23,3195.0,4305.0,6385.0,13885,519.0,14404.0,4.0,"['Misc', 'Jersey', 'T-shirt']"
962d8119c0999f822c47656cc12ea8f5d7908518a58ca4b9361aec87c9dc9183,user426@supersonics.com,359-150-1957,75017,19,3.0,3.0,17,2410.0,5540.0,2085.0,10035,216.0,10251.0,1.6666666666666667,"['Hat', 'Misc', 'T-shirt']"
6f9f7866a825326cf4f0d41fc6ea021763f0f7cf13b5243bb888deb148de0bb4,user29@supersonics.com,359-438-3600,76642,19,1.0,1.0,14,3830.0,4250.0,2060.0,10140,63.0,10203.0,3.0,['T-shirt']
87bc56fd84ee0c6e5ebf327e2b4bb281a2d7c67b42b48ab044ff491274cc1eed,user409@supersonics.com,359-601-1637,77099,21,3.0,4.0,18,3920.0,2975.0,2750.0,9645,226.0,9871.0,1.5,"['T-shirt', 'Misc', 'Jersey']"
f5acd732aa2a7a2134320bdd6b935a170465441856ad10685b418cdbfaf300cf,user258@supersonics.com,361-658-9642,77339,17,4.0,3.0,13,430.0,6270.0,3190.0,9890,299.0,10189.0,3.3333333333333335,"['Hat', 'Misc']"
6e0f7f40343a81bc7dd27bb17af9198452bc9c024921439bab2173aa991651a6,user127@supersonics.com,364-864-7274,77532,11,7.0,2.0,9,1810.0,2170.0,1530.0,5510,794.0,6304.0,4.5,"['Misc', 'T-shirt', 'Jersey', 'Hat']"
ad6cb2f94eca5f64668a34b1f74caedae21474a733d120c7d440016c0737912c,user288@supersonics.com,364-944-6088,77025,20,4.0,2.0,17,3470.0,4040.0,2490.0,10000,202.0,10202.0,1.0,"['Misc', 'Hat', 'T-shirt']"
c7ea9481cd9ab331a82593d415004480d6bde5349c4c4d847d259e272264ae61,user255@supersonics.com,365-416-1472,77497,25,4.0,3.0,17,2260.0,2480.0,3030.0,7770,371.0,8141.0,3.3333333333333335,"['Jersey', 'Hat', 'T-shirt']"
68f17fbf82f15f0d4f5eb569c4b30080ac7202c519180481d65034ef45ee9c86,user271@supersonics.com,366-753-6402,75778,21,3.0,4.0,16,4140.0,4200.0,1215.0,9555,126.0,9681.0,3.75,"['Hat', 'Misc']"
5be568a169c9c72eac0c9cfed5a0456a5fb49f7bc39907d7db31b6fa73962547,user423@supersonics.com,368-721-1657,76649,9,4.0,1.0,8,1120.0,2460.0,0.0,3580,888.0,4468.0,5.0,"['T-shirt', 'Hat', 'Jersey']"
1a6a0257dd59ef3d67ca664cf87e74d7e441534852b17510e05bbdf48ebd3269,user220@supersonics.com,373-695-8040,75782,22,10.0,4.0,18,2790.0,3355.0,3260.0,9405,819.0,10224.0,1.75,"['Misc', 'Hat', 'T-shirt', 'Jersey']"
5629cb30dd68275ad7b6df1226b2946881b2d779286002e3e4dee9ff207cdae2,user346@supersonics.com,373-921-1906,13408,20,3.0,4.0,14,3210.0,2625.0,2800.0,8635,432.0,9067.0,2.0,"['Jersey', 'Hat', 'Misc']"
66992bf5f8c5ec5b6bf1b2ffb0ad605e9c259ce6524b8caa27ef586084f26e5f,user246@supersonics.com,374-665-7971,77099,26,4.0,3.0,21,3540.0,6150.0,2600.0,12290,508.0,12798.0,3.0,"['Misc', 'T-shirt', 'Jersey']"
843739a1d617c401aea647d1621987560c1cd7c549a7671506f4f431e59a34c7,user403@supersonics.com,375-534-9476,76642,23,3.0,4.0,18,3215.0,515.0,4230.0,7960,308.0,8268.0,3.75,"['T-shirt', 'Jersey']"
a6894cb394881f657e1ef0dded681549d77e31021c392820719fc4b1c1b433e5,user489@supersonics.com,375-702-7786,77073,20,5.0,3.0,18,2880.0,4485.0,2010.0,9375,676.0,10051.0,3.3333333333333335,"['Jersey', 'Hat', 'Misc']"
4f73ac9b495efe836ed3b7287ba1b2d65a69cdc2a51feac524569ce181d16d8e,user75@supersonics.com,377-750-1174,77377,12,2.0,2.0,11,3290.0,2220.0,1715.0,7225,90.0,7315.0,4.5,['Misc']
e66bf983491a3df11a2693b2ba9e111c9aae3009408cefc5cbdbf63c4afad6b9,user432@supersonics.com,378-591-7346,77073,17,3.0,2.0,15,1220.0,2950.0,4075.0,8245,255.0,8500.0,4.5,"['T-shirt', 'Misc']"
52403302579e109b22c40fc20ee7dbc6dc49aa2165522a0891e842f493c0ac80,user408@supersonics.com,378-803-5942,75028,20,7.0,2.0,17,2850.0,5110.0,1400.0,9360,832.0,10192.0,2.0,"['Misc', 'Jersey', 'Hat', 'T-shirt']"
cf80499625aa18f1b1ec7def1dc9d85b7ee635b24b0bd78fb6e4023e47c2f40a,user253@supersonics.com,379-361-1910,77401,20,3.0,2.0,14,3300.0,2890.0,2230.0,8420,72.0,8492.0,4.0,"['T-shirt', 'Misc']"
78656bf4d967aefb8e99647135ff4bbe100c7e17f6ef8e545dc32c60f93b181c,user31@supersonics.com,379-449-1875,75017,24,2.0,3.0,17,4130.0,3935.0,3740.0,11805,283.0,12088.0,3.3333333333333335,"['Jersey', 'T-shirt']"
87a326233445425682a4ac14d84d03397cdc453a3ef1df4e0d57dc936ab6353f,user182@supersonics.com,379-724-3829,77459,26,4.0,1.0,23,2620.0,2865.0,3170.0,8655,464.0,9119.0,3.0,"['Jersey', 'Misc', 'T-shirt']"
9f18e26bc131eb273bdd0e8cb59eaa474dd56f848e629df11463205f45630099,user290@supersonics.com,382-186-5199,75558,23,4.0,4.0,16,6730.0,1340.0,3095.0,11165,182.0,11347.0,3.0,['Hat']
9c7ef969aeca0bdda097c94d57258c8cbd0a125f1fdbfc3b29b9d370f5e02dcb,user369@supersonics.com,385-921-6319,77057,21,3.0,3.0,16,2535.0,2050.0,6585.0,11170,106.0,11276.0,3.3333333333333335,"['T-shirt', 'Misc', 'Hat']"
0d6f2f75b9e9be4ff5f7f76526f8f4925453874038c213d79f9f60e469edae42,user195@supersonics.com,386-340-5345,77492,21,2.0,3.0,14,1650.0,3250.0,1430.0,6330,454.0,6784.0,1.3333333333333333,['Jersey']
90e41d7cfe29a55ea1f802e0958a4823c6cfa3c83403f8b63e7fe391347b0975,user270@supersonics.com,389-190-5524,77541,15,4.0,6.0,14,2100.0,665.0,2050.0,4815,410.0,5225.0,3.1666666666666665,"['Jersey', 'T-shirt', 'Hat']"
7bdf7ef3c929842aa8cae33874815eb255fd8b5daa4e3133a8875ea057ff3db3,user188@supersonics.com,389-959-1419,75142,29,2.0,2.0,22,5190.0,3210.0,6630.0,15030,118.0,15148.0,4.0,"['T-shirt', 'Misc']"
4db25be29d8c6855d5148c324e113b40fcd033582cc64a6a11acdc01475cd85b,user138@supersonics.com,391-872-3722,75124,19,2.0,5.0,15,1790.0,2455.0,950.0,5195,135.0,5330.0,4.0,"['T-shirt', 'Jersey']"
46437a40f9ef4c83db8bf50d0bb7a6436cccda23c4edf8c6759ce9ae34cfc082,user303@supersonics.com,393-315-6278,77091,15,2.0,2.0,14,3825.0,1080.0,2000.0,6905,115.0,7020.0,5.0,"['T-shirt', 'Misc']"
fb317a9d3a2b03850d12106f9a932bf09822dfe15dbe5b6111c28e977dc09a15,user474@supersonics.com,394-434-4180,76649,24,6.0,2.0,18,2460.0,3340.0,7340.0,13140,496.0,13636.0,1.5,"['Hat', 'T-shirt', 'Misc', 'Jersey']"
8c2eccf9b7cca074a9644fa39d9055d38b7f74aab5f05f606afb619e74796d59,user244@supersonics.com,395-520-8323,76715,19,5.0,4.0,16,3260.0,1990.0,3135.0,8385,283.0,8668.0,3.5,"['Misc', 'T-shirt', 'Hat']"
71df30260caa23fdd4b382fa9ae06d34bc05e130abb9920a5733cc5340641c77,user289@supersonics.com,396-889-7192,25628,19,8.0,3.0,15,1740.0,825.0,4100.0,6665,1799.0,8464.0,2.3333333333333335,"['Jersey', 'Hat', 'Misc']"
2a645ebe376fdf63720b180717df572fc6455bba12ce7a2145c25ee1ec6ba5c5,user85@supersonics.com,399-417-4359,78054,23,3.0,7.0,16,4030.0,4325.0,1680.0,10035,482.0,10517.0,3.4285714285714284,"['Jersey', 'T-shirt', 'Misc']"
4e52de80c344130f904adcdf0570e77d2bce4c97be618709cd1d74d860ada385,user395@supersonics.com,401-319-9110,75138,16,3.0,2.0,13,6000.0,2645.0,665.0,9310,167.0,9477.0,4.0,"['T-shirt', 'Hat']"
8e5d7c151d357b269a318151d1f907a17503f012b0f1da0e54366fbe46c28668,user250@supersonics.com,403-406-6098,77365,19,4.0,4.0,13,965.0,3080.0,5300.0,9345,191.0,9536.0,2.0,"['Hat', 'Misc']"
ac17bc0669d9a2d87baa40fa041fc2945c7e6a86e73867e5bf04870fe966ab96,user480@supersonics.com,404-140-3085,75660,17,3.0,5.0,13,3100.0,1720.0,4850.0,9670,291.0,9961.0,2.2,"['T-shirt', 'Misc', 'Hat']"
085fec4555f4ffaaa0ecbd6ed65def0b69012cc320a6e84a6e992812c4d8fe61,user301@supersonics.com,404-400-1314,77019,18,5.0,3.0,15,4400.0,2605.0,390.0,7395,862.0,8257.0,2.0,"['Hat', 'Jersey', 'T-shirt']"
6fd569ab3cca20ddd8da93f4a5cc818207d09d25297c2325a672a7aa5dc1cf9d,user335@supersonics.com,404-993-6272,78591,20,5.0,3.0,14,6750.0,720.0,3785.0,11255,633.0,11888.0,3.0,"['Jersey', 'T-shirt', 'Misc']"
41de561d01c9cb02dbb2dafd912c08d255f83dbe8905dfa320f26031a243fe54,user410@supersonics.com,406-119-3453,77433,16,5.0,2.0,14,2850.0,5850.0,2800.0,11500,366.0,11866.0,2.5,"['T-shirt', 'Hat', 'Jersey', 'Misc']"
9259752a9cc761329e25a82c8573691007935e94a535756c48c67f51b16706c0,user441@supersonics.com,410-899-8591,77536,18,5.0,1.0,16,950.0,3790.0,990.0,5730,346.0,6076.0,3.0,"['T-shirt', 'Jersey', 'Hat']"
8bd21cfc7a090196b3e6231563425cac3f6b0b0ed6abfe803ab5aeab6d9e66e7,user192@supersonics.com,412-161-9353,77092,18,3.0,1.0,15,990.0,2450.0,4560.0,8000,604.0,8604.0,3.0,"['T-shirt', 'Jersey', 'Hat']"
c7657901380b3473430beb08a2103b232dcd33fe3a9bcd93314c48661e8c5b2f,user12@supersonics.com,412-417-3174,75757,23,4.0,6.0,17,3165.0,3150.0,2140.0,8455,265.0,8720.0,3.0,"['Hat', 'Misc', 'T-shirt']"
6f68c8328000938c62d0083f5d6a8a1341144e0ca0e705deefc35dd8e6dc8299,user389@supersonics.com,414-194-2741,77017,22,5.0,3.0,15,4185.0,5635.0,470.0,10290,682.0,10972.0,3.0,"['Hat', 'Misc', 'Jersey', 'T-shirt']"
54a5e2123ee0a1cb5a76d695063990d3a57bf240d4970abcb664e51194c952e0,user180@supersonics.com,414-394-8054,75782,20,4.0,3.0,14,1790.0,2005.0,4725.0,8520,516.0,9036.0,3.0,"['Hat', 'Jersey', 'T-shirt']"
a9bd6ef77d6e894c08ef1fa6646e1a36ccd4e8fb61e83787011a67a57d6de1a0,user361@supersonics.com,419-242-1720,77588,16,7.0,2.0,13,2650.0,1440.0,1370.0,5460,579.0,6039.0,2.0,"['Hat', 'Jersey', 'T-shirt', 'Misc']"
d08811e4cd01306e8a6dd0ede8f67387c2900c2bf72a57be3f763fa3ce5c019c,user405@supersonics.com,420-764-8644,76801,22,6.0,6.0,15,5450.0,2875.0,1485.0,9810,378.0,10188.0,2.8333333333333335,"['Hat', 'T-shirt', 'Misc']"
9c7300edaf65f8b4ea10df564341e075e3652e07b3e0fd847111158866d487ec,user264@supersonics.com,423-450-1180,76629,19,4.0,2.0,16,2330.0,4800.0,2050.0,9180,465.0,9645.0,3.0,"['Jersey', 'T-shirt', 'Hat']"
afc1a6892f90996a53c7979a347ff7730e57222e0a296713fc646bc99a76005e,user294@supersonics.com,423-993-8770,77389,16,2.0,3.0,11,3115.0,300.0,2410.0,5825,297.0,6122.0,1.6666666666666667,"['Hat', 'Jersey']"
17aa8b0c33a4ec1af10cc8251b383d45255e7feeddba59b22e20a3b6b4a11a0b,user17@supersonics.com,427-385-1135,77078,21,1.0,7.0,12,1650.0,6590.0,3720.0,11960,46.0,12006.0,2.857142857142857,['Hat']
38c4e07bbd3047d14c0e873e74e08fb1ead3320bc60dc8553eedf744d9838d01,user143@supersonics.com,429-592-8723,75169,26,3.0,2.0,15,5025.0,2230.0,6295.0,13550,156.0,13706.0,2.0,"['Hat', 'Misc']"
9a5ae4ad29aa0e515186c90a3ace5a7208b5431d4b546b81e99f643fc006febc,user56@supersonics.com,429-760-4197,77469,14,3.0,1.0,11,2560.0,3595.0,450.0,6605,346.0,6951.0,5.0,"['T-shirt', 'Hat']"
c9c42148b1c7118feb1565ec59c2e3e6d8f53d54144273328357441d54fd2590,user66@supersonics.com,430-832-8464,77494,21,9.0,9.0,19,3470.0,1310.0,3240.0,8020,688.0,8708.0,3.7777777777777777,"['Jersey', 'Hat', 'T-shirt', 'Misc']"
7c2076fd4c7d8ddaddf1ec644f549c8f5e598eb2a9054e7b5f85468ec0b9187f,user352@supersonics.com,433-864-3752,77078,16,5.0,3.0,14,2965.0,1460.0,250.0,4675,692.0,5367.0,3.3333333333333335,"['Jersey', 'T-shirt', 'Hat']"
4379cd70c2b743bc8dd7dd48553f409fd67b7df9781e3f85e00808802fa61cb9,user254@supersonics.com,435-986-2962,77586,27,3.0,6.0,20,3340.0,4430.0,6335.0,14105,167.0,14272.0,3.6666666666666665,"['Misc', 'T-shirt', 'Hat']"
68c057e9a0875b46d6506f11b678687873100bd83467313e16b1df1d853cf3e1,user198@supersonics.com,437-155-8642,77484,21,9.0,2.0,17,4200.0,2980.0,1590.0,8770,1124.0,9894.0,1.5,"['Hat', 'Jersey', 'Misc', 'T-shirt']"
a5a5bf62ddf355fc61ce998e0747f7c80dfb915484c9c42528e481628793af65,user311@supersonics.com,437-266-7267,77507,22,1.0,2.0,17,4725.0,3450.0,3160.0,11335,72.0,11407.0,2.0,['Hat']
a0ddc42343fd8af7c81ddfa388eacc192e1ea989f02e4b2ec36f3eb637c45fba,user215@supersonics.com,438-203-5523,77062,18,6.0,3.0,15,1220.0,655.0,2220.0,4095,1189.0,5284.0,3.3333333333333335,"['Misc', 'Jersey']"
5c683a5719bb774a2b507d0a0e5b60e37eb018163b64f8a79bf99e5ec6b654b2,user418@supersonics.com,438-618-8704,77037,17,7.0,5.0,15,2430.0,1690.0,1370.0,5490,730.0,6220.0,2.2,"['T-shirt', 'Hat', 'Jersey']"
b681df1b49c9ac08fb0f2c30117692bea1f08116601b55494db67277e1db56a6,user282@supersonics.com,441-530-5942,77520,15,3.0,7.0,14,4600.0,435.0,675.0,5710,433.0,6143.0,3.2857142857142856,"['T-shirt', 'Jersey', 'Misc']"
111b06d7d17472164faf27befec0d6a287dd85eac5412c1da5c63d5a42c62474,user305@supersonics.com,444-408-9614,77287,19,4.0,3.0,14,3855.0,2895.0,2760.0,9510,329.0,9839.0,4.0,"['Misc', 'T-shirt']"
50cb43eaa1c9e779103c28f82b4728405b317fb05b38ee1037cff5de75187ddb,user298@supersonics.com,446-371-4938,74868,20,2.0,3.0,16,2875.0,2520.0,1460.0,6855,426.0,7281.0,2.6666666666666665,"['T-shirt', 'Jersey']"
00de6a6834070663c7f56a18c4113082b4a0f1c87bacea6a574fb931c2563ef4,user476@supersonics.com,449-545-9955,77006,14,5.0,1.0,11,3350.0,775.0,2745.0,6870,352.0,7222.0,4.0,"['Misc', 'Hat', 'T-shirt']"
b7bab7be0904b40e5b31d83d9bfa7733a17f702bc4610c2e64f0569ca508438d,user209@supersonics.com,450-696-5806,77459,14,1.0,1.0,10,2535.0,2380.0,1400.0,6315,50.0,6365.0,2.0,['Misc']
f94556fb1343e99b4225429a7c30c13d5bf74ecfa5cd9bf2ea14034ecd8e28f5,user376@supersonics.com,454-638-6517,75453,26,3.0,4.0,21,4320.0,3550.0,2540.0,10410,511.0,10921.0,1.5,"['T-shirt', 'Jersey']"
f754d2872d2ce08a1a487284ebffac7d3819eee0d4ceffa3ebf2b7b2a607bb35,user217@supersonics.com,459-840-3737,77028,19,2.0,5.0,16,2130.0,2005.0,5420.0,9555,51.0,9606.0,3.0,"['Hat', 'Misc']"
5da31c3e1b7597fa81aae4c99211a784767cf29151a7a7e3b9d6b1d0fd506ccd,user32@supersonics.com,460-623-3544,76135,21,3.0,2.0,16,5020.0,3830.0,1830.0,10680,935.0,11615.0,3.5,['Jersey']
b931d9cebba040f4fb3e6f6cbfbf6d5633088e8192654b71ebc8130b412c72bf,user385@supersonics.com,460-913-3051,77068,16,2.0,8.0,15,1800.0,1645.0,4640.0,8085,198.0,8283.0,2.625,"['Jersey', 'Misc']"
ad17b3eeb565d56dffa68572ede0bbb6e25d5f11050ad55c1c926dc6a762d8ff,user11@supersonics.com,462-805-3983,76135,10,2.0,2.0,9,1130.0,2600.0,155.0,3885,414.0,4299.0,2.5,"['Jersey', 'T-shirt']"
58be8ced1aeb775dae0dd8e94ad6b8a4ea409c1751b84da43700f7abbb22e553,user402@supersonics.com,462-867-8597,75599,11,4.0,3.0,9,3115.0,2450.0,1400.0,6965,484.0,7449.0,2.3333333333333335,"['T-shirt', 'Misc', 'Jersey']"
c380271d5e52a2a34e264d19c039bc4a53ddf0a6351c707f8c8d138599a3dd4e,user388@supersonics.com,463-795-6959,75559,19,4.0,4.0,14,1450.0,2295.0,415.0,4160,322.0,4482.0,2.25,"['T-shirt', 'Jersey', 'Misc']"
e9fc98d4473210cd9b33e84c8980821db04571e1d2da1d5c345770002408496d,user358@supersonics.com,464-208-9383,75039,16,3.0,2.0,13,3700.0,2250.0,3740.0,9690,274.0,9964.0,1.0,"['Misc', 'T-shirt']"
f23d2a076692046e395d44a64e390a3062edc2f2a970f4aabcc4260262443da2,user359@supersonics.com,464-686-4183,77472,20,4.0,2.0,15,3940.0,2350.0,2650.0,8940,436.0,9376.0,3.0,"['Jersey', 'Misc', 'Hat']"
0ec4fd34b0bcb6680842efeb5523648508637be3e35c453da7e5fe961d6657d3,user94@supersonics.com,466-639-7281,77067,29,3.0,5.0,20,4850.0,5360.0,3360.0,13570,159.0,13729.0,3.2,"['Hat', 'T-shirt']"
445c1dde2a36cd7226b687e93aaac7fc352bcdfef8c6daac01897bd8caf02ad3,user456@supersonics.com,466-766-2822,77032,24,3.0,2.0,19,1910.0,4230.0,5740.0,11880,428.0,12308.0,2.0,"['Misc', 'Jersey']"
4ac54456b6c892603f55dd007dec4ae484d60ebc01fb7bb65e3449c33ec6796c,user299@supersonics.com,467-379-7050,77067,15,2.0,1.0,14,3405.0,1550.0,190.0,5145,358.0,5503.0,2.0,"['T-shirt', 'Jersey']"
e975e92a410f466e74b00cb838b201f8ed33a5b4886323409b84f848b8d1cb00,user167@supersonics.com,472-534-2268,77082,27,6.0,3.0,17,1550.0,4185.0,5280.0,11015,663.0,11678.0,5.0,"['Jersey', 'Misc', 'Hat', 'T-shirt']"
d9b94802b569154e5272b7771bd301acd3d236b2bcc59bb81c94e7fa2304405c,user226@supersonics.com,474-664-9907,76518,20,3.0,2.0,18,4070.0,2960.0,3830.0,10860,324.0,11184.0,2.5,"['T-shirt', 'Jersey', 'Misc']"
16fb95dca092b11f7f59dc1fa6b364cfa64f7e830b7556df8970e540226d44b4,user70@supersonics.com,475-130-5568,77061,17,1.0,4.0,11,1875.0,3545.0,375.0,5795,95.0,5890.0,3.5,['Hat']
852ed18c7d0029aaa397892d4156518243c8fa1d93098be72a7edfb594f23a5a,user26@supersonics.com,475-564-4177,77014,18,0.0,3.0,16,1830.0,1865.0,4235.0,7930,0.0,7930.0,3.6666666666666665,
3cdbb3af089a101dd23968d55e062537bed6675ceed7b10b42f9352858f4aefd,user256@supersonics.com,476-144-4575,31555,17,4.0,3.0,15,360.0,2630.0,1970.0,4960,925.0,5885.0,2.0,"['Jersey', 'T-shirt']"
7770fdb9dfcd393125dbfaac91b6a69af103731d34da3518fa369f6f904a88c1,user142@supersonics.com,477-236-9428,77011,14,3.0,5.0,13,5070.0,2870.0,520.0,8460,753.0,9213.0,3.2,"['Misc', 'Jersey']"
e969eee6f96df15261183ce40571175bb5b86a71e61f13be18b79e2e49e75657,user131@supersonics.com,478-348-4403,75443,20,3.0,2.0,16,1180.0,5245.0,1240.0,7665,146.0,7811.0,4.0,"['Misc', 'T-shirt', 'Hat']"
732b1ce1e72a4fb2d682c0ab3ff289d945ae5d5666dc08553a6889f0140bce1c,user451@supersonics.com,480-195-1601,77546,19,3.0,1.0,15,3070.0,360.0,5390.0,8820,484.0,9304.0,1.0,"['Misc', 'Jersey', 'Hat']"
2034ee1b6663611c563d7e9bd94ae2f11bacbf12f375e9aa391e4b9448e4fd6f,user482@supersonics.com,481-211-1175,99950,13,7.0,6.0,12,4420.0,1300.0,1570.0,7290,766.0,8056.0,3.6666666666666665,"['T-shirt', 'Hat', 'Jersey']"
7e4f33b6fdac0b1afd64b1d33e21aefd2dd26a4c7350074cefb40893b88c1352,user204@supersonics.com,481-518-8887,77056,18,2.0,2.0,14,2920.0,900.0,4025.0,7845,288.0,8133.0,3.5,"['T-shirt', 'Hat']"
ff301ce56e51bc956fc535cd1c13f4eabd87acadd51a5c8aa7240aa8ff8edcf0,user340@supersonics.com,481-764-5291,76569,20,6.0,2.0,15,2545.0,2145.0,730.0,5420,774.0,6194.0,1.5,"['Hat', 'Jersey', 'T-shirt', 'Misc']"
6ba27424c93052c28a38223852e6c406a3c1100b26cf16679f314c5eadc144e1,user104@supersonics.com,483-242-3394,77090,12,3.0,2.0,10,1080.0,1510.0,1290.0,3880,183.0,4063.0,3.0,"['Hat', 'T-shirt', 'Misc']"
559aa573c2a587cb710b1ed07a9c72757070c13c2f89cc620a0755461e818d0d,user344@supersonics.com,485-208-7059,75599,19,4.0,1.0,16,875.0,4450.0,4060.0,9385,847.0,10232.0,5.0,"['Hat', 'T-shirt', 'Jersey']"
1b31ec8dba27a86cff3903b6eb79a804fdc2fbf06820a1d7beb70b2178c054d3,user249@supersonics.com,485-463-2589,77078,16,4.0,4.0,15,4670.0,2560.0,1400.0,8630,1222.0,9852.0,2.75,"['Jersey', 'T-shirt']"
522b6757bc2906155aaa0b3a86099107de4d943be025c04929c821a5a661a584,user430@supersonics.com,485-859-6432,77012,23,2.0,5.0,15,5715.0,830.0,1990.0,8535,452.0,8987.0,3.0,"['Jersey', 'Misc']"
3d515ba7c644838e4fdb9c4ea867673a50945412ae7ca9271048e9773ea2cc4c,user455@supersonics.com,486-345-7133,78115,18,6.0,3.0,16,3780.0,1555.0,2610.0,7945,1213.0,9158.0,2.3333333333333335,"['Jersey', 'Hat', 'T-shirt']"
f5eec6ae1e0cb0a05503287e7f56fdbf7713c9c58876538eb4f1f2213704cc3e,user86@supersonics.com,486-933-6660,77045,27,3.0,1.0,15,1720.0,3535.0,5215.0,10470,668.0,11138.0,1.0,"['Misc', 'Jersey']"
83f6ab549979c5aaf32c197864528e4e59c450862cfada8e3d61f1b000c5cbc4,user38@supersonics.com,487-887-5124,75231,21,5.0,4.0,15,300.0,4790.0,1510.0,6600,644.0,7244.0,4.5,"['Misc', 'Jersey']"
d22d19ad6ed010c82037cd1e71f94a7b72c3927caae03f9e34169a430b9dfac3,user141@supersonics.com,490-491-8071,76673,17,5.0,2.0,15,520.0,3535.0,3025.0,7080,444.0,7524.0,2.5,"['Misc', 'Hat', 'T-shirt', 'Jersey']"
d87d38c976515fd20130ea56dd92716781612b8bfdd1f9d66ab5e20f7a35ccec,user355@supersonics.com,491-200-3615,77520,13,4.0,4.0,9,2990.0,1480.0,2950.0,7420,556.0,7976.0,2.5,"['Jersey', 'Misc', 'Hat']"
3e2ace90fcca052989b9daa85995284503e9ec55cc39a6152effdedd2565ec7b,user327@supersonics.com,492-599-5497,77586,21,11.0,3.0,17,3800.0,2140.0,2225.0,8165,1036.0,9201.0,3.3333333333333335,"['Hat', 'T-shirt', 'Jersey', 'Misc']"
14b769cd614774ff033d9fb7f646b2e71c404d477425a118389f7648b41e954d,user459@supersonics.com,493-615-1216,77336,24,5.0,3.0,17,4515.0,1900.0,4950.0,11365,529.0,11894.0,3.6666666666666665,"['Hat', 'Jersey', 'T-shirt']"
88fd701ff3891bb53f44062df141b695674d3a1ac7f7fadda2abd5c0b674e166,user447@supersonics.com,494-673-3995,77012,18,2.0,2.0,17,2310.0,2025.0,2265.0,6600,416.0,7016.0,3.0,"['Jersey', 'Hat']"
ad6fdfc7bd61fa955f64b1133fae82c62d29a901c9ab38ffb5ded943001e75ce,user463@supersonics.com,495-216-7888,77016,24,3.0,4.0,17,1900.0,3300.0,6680.0,11880,651.0,12531.0,3.5,['Jersey']
e7c1ae31f371690746ad0cf1a9234e048e2f2091a0dbf9394ee34bc2d8233a0d,user203@supersonics.com,498-611-7763,77084,33,5.0,3.0,22,5255.0,6425.0,2655.0,14335,391.0,14726.0,3.3333333333333335,"['Misc', 'T-shirt']"
d20ea717411139b08b69f994f2850e0e646dae5eb2f52660dbaadb3c202940dd,user234@supersonics.com,499-795-8878,78163,14,2.0,3.0,11,1560.0,1390.0,850.0,3800,230.0,4030.0,3.6666666666666665,"['Misc', 'Hat']"
e2e5e7e6af0d3e4858f81555d0879d52d573af82960c36da5a60443d50d16b1f,user91@supersonics.com,501-318-2406,77963,25,4.0,1.0,23,3160.0,1345.0,5515.0,10020,342.0,10362.0,5.0,"['T-shirt', 'Hat', 'Misc']"
24878f6b69874f45e8323c65962b3422886e736124172ce513e258e652739b0e,user331@supersonics.com,501-615-2777,76653,17,2.0,5.0,13,1000.0,5460.0,2295.0,8755,132.0,8887.0,3.0,"['T-shirt', 'Hat']"
a0b3ba46ead4aeb9a7c97373c391d23c56893e0a01753bef62a0c9b7ee652d43,user172@supersonics.com,502-171-6687,77503,30,3.0,1.0,22,2920.0,6745.0,5805.0,15470,567.0,16037.0,1.0,"['Jersey', 'T-shirt']"
28a46d662c204779bb706375c64972e3422578c8527aacfad14e8eb65bd92a14,user386@supersonics.com,504-303-1445,75036,17,6.0,2.0,15,2450.0,4890.0,1640.0,8980,333.0,9313.0,1.5,"['T-shirt', 'Misc', 'Hat']"
a3eefdaaa3ca95f76df1b133ec1420841a2958182b169df666946caa5747e0ff,user24@supersonics.com,505-831-8303,75443,17,4.0,5.0,16,2780.0,1415.0,2360.0,6555,272.0,6827.0,2.0,"['Jersey', 'T-shirt', 'Hat']"
a9eb9fa2b51e1872cc05ff053f167bf4e0ba76bed3995d6f2ed41aa6fc5854c9,user478@supersonics.com,505-855-8738,77835,19,5.0,1.0,16,4295.0,5260.0,2265.0,11820,337.0,12157.0,2.0,"['Misc', 'Hat', 'Jersey']"
799a328a7cdd82f29dc6b51def40d243f6d2c8c25accbd66ace8749c47c7fbee,user62@supersonics.com,506-139-6831,75270,20,4.0,3.0,17,3995.0,980.0,3510.0,8485,296.0,8781.0,4.0,"['Jersey', 'T-shirt', 'Misc']"
4cbdf498229051c293cb6f4c3a0a13985413fec5032502a05f286bb884467fb3,user16@supersonics.com,507-573-8758,77072,19,8.0,4.0,15,3650.0,1560.0,1605.0,6815,351.0,7166.0,4.5,"['Misc', 'Hat', 'T-shirt']"
0b94062206cbfff35f52a40a04033ffe2274c3be96300e80a7999160a516bfd1,user383@supersonics.com,508-477-7254,78268,11,4.0,3.0,9,1720.0,1650.0,30.0,3400,522.0,3922.0,3.0,"['T-shirt', 'Hat', 'Jersey']"
b14c35b767a102ab201e9db9416922e40eae787cbd224d7bfe7b0ba25cc7c787,user442@supersonics.com,508-869-3283,76798,20,5.0,4.0,15,3595.0,4175.0,2400.0,10170,311.0,10481.0,3.0,"['T-shirt', 'Hat', 'Misc']"
f18a6b4dbe2f0d03a44cdc95e2148c871e95c051280455b215ce85c1a2c4388f,user73@supersonics.com,509-331-6469,77015,22,7.0,5.0,19,3305.0,3665.0,1110.0,8080,593.0,8673.0,3.8,"['Hat', 'T-shirt', 'Misc', 'Jersey']"
956c8241a46240a7c34a84ac0b209f0c88ec0f9d23bbdb8d63bed0e80971d098,user136@supersonics.com,510-831-1597,31555,24,4.0,4.0,18,6260.0,1450.0,4205.0,11915,521.0,12436.0,3.0,"['Misc', 'Jersey', 'Hat']"
42b235e40c01dff699e81d172465c35dceb121e84fdc2094d64aeace9559ce53,user137@supersonics.com,511-198-9574,76802,21,2.0,3.0,17,1950.0,5165.0,2320.0,9435,151.0,9586.0,3.0,"['Hat', 'T-shirt']"
c6a9f9e10ee9f2ed8e212846e0d7868f717d3e2db95eec7b28c5baad1ceda87a,user273@supersonics.com,513-681-3917,77484,17,4.0,3.0,13,3565.0,4170.0,1485.0,9220,371.0,9591.0,1.6666666666666667,"['Misc', 'Jersey', 'T-shirt']"
767c18edc34575f7991a9f1355e9a2d032eb625e78fe2a84f3d84bf81bd8ae30,user170@supersonics.com,515-663-7770,75750,36,8.0,4.0,24,6140.0,5070.0,2180.0,13390,624.0,14014.0,2.75,"['Hat', 'T-shirt']"
a777831a6e61f7dc7ad0373bba39bbf0a2f09945df8ec9c544ac31f041ceadc2,user208@supersonics.com,517-326-9769,77039,12,4.0,3.0,11,1800.0,935.0,2700.0,5435,373.0,5808.0,2.0,"['Misc', 'Hat', 'T-shirt']"
06b3351e9d265989fa3662f5b097e7df40c9584b4e5ada87527d22b02ad23297,user149@supersonics.com,517-399-1063,78610,17,3.0,3.0,15,3405.0,2110.0,2120.0,7635,326.0,7961.0,4.0,"['T-shirt', 'Misc', 'Hat']"
9db085b1b9746f9a327944ad3dc884b7bce0bb8f83be23227ac0200a08f85baf,user416@supersonics.com,517-475-3034,76869,18,6.0,2.0,16,5580.0,2515.0,350.0,8445,1841.0,10286.0,3.0,"['Jersey', 'Misc']"
19496c252b9ded2ae73b8a615869776d0bbd7bdd29d280a7a44e13f6e4dedc38,user262@supersonics.com,517-744-7036,77588,21,0.0,2.0,17,2465.0,2900.0,6795.0,12160,0.0,12160.0,3.5,
24fbd681b674e00c6bb108b532b52508850f6b4bf49547fe87acfe78ebca99d2,user315@supersonics.com,518-475-7681,77015,18,3.0,3.0,16,1875.0,2210.0,875.0,4960,226.0,5186.0,3.3333333333333335,"['Hat', 'T-shirt']"
0f57de0bb528725b171cba151d481ba8b0a0dad2737dc1666ebf5ecf2787dad0,user475@supersonics.com,518-650-5563,76828,21,5.0,3.0,16,1250.0,2745.0,3390.0,7385,503.0,7888.0,3.0,"['T-shirt', 'Hat']"
610b289df12b6eb6635db2e5f0c7a2b9bd77e8098709d539a9d8c492222ac3d9,user168@supersonics.com,519-316-9368,77064,20,5.0,5.0,16,3390.0,1665.0,3480.0,8535,272.0,8807.0,3.2,"['Hat', 'T-shirt', 'Misc']"
ca372ec326c85b2ab58b982ed707e13c836274509d578926fca6d030743532b1,user6@supersonics.com,520-173-7614,75453,28,7.0,3.0,18,3815.0,5435.0,4135.0,13385,443.0,13828.0,3.6666666666666665,"['T-shirt', 'Hat', 'Misc']"
54b517be322c28e7c727b110a1d0b0e94ee35a6837299069f0ec57e8a920729b,user483@supersonics.com,521-431-5400,77406,27,8.0,4.0,18,2250.0,5390.0,4855.0,12495,1355.0,13850.0,3.25,"['Jersey', 'T-shirt', 'Misc']"
3be2f56bd41311e8760e36997a439b9ff8a7fe7a66ca3f64dd6ea42ce1d8dcf0,user252@supersonics.com,523-950-7850,77479,24,3.0,3.0,20,2350.0,3630.0,3910.0,9890,176.0,10066.0,3.0,"['Hat', 'T-shirt']"
b457861d7e777a35001afb3245f385e57a8fd1c6072b404f40a54e07d1e86d80,user332@supersonics.com,524-512-1663,77616,18,3.0,3.0,13,1805.0,825.0,1740.0,4370,124.0,4494.0,2.3333333333333335,"['Misc', 'Hat', 'T-shirt']"
3d0a90be71e0dac3749c7e3eb732ba3dbbc8efe1b23903b31df090b438280cba,user210@supersonics.com,527-544-2707,76873,20,5.0,3.0,17,6475.0,2380.0,1590.0,10445,672.0,11117.0,2.6666666666666665,"['Jersey', 'Hat', 'T-shirt']"
66a641cefeffcaf13ee6cc5380e1a04fa1eace53de4a1126411ccd012a5a1a7e,user275@supersonics.com,531-554-3702,77023,21,1.0,2.0,17,4275.0,4815.0,1130.0,10220,6.0,10226.0,3.5,['Misc']
0153b25e06346cdb0830c2e19ec48b1b5301a18151baf49746346f18bbf8c1c8,user81@supersonics.com,534-779-8923,77007,21,3.0,2.0,17,2865.0,1830.0,4570.0,9265,135.0,9400.0,4.0,"['Hat', 'Misc', 'T-shirt']"
3923b8340bd0dc17391af0d0b248a4523238d69da752d04f30e922fb950f9259,user44@supersonics.com,537-164-7407,77546,11,5.0,4.0,10,1920.0,1350.0,2030.0,5300,888.0,6188.0,3.25,"['Misc', 'Jersey', 'T-shirt']"
5d0965e3f6116ec05532de5c7f785596d65b27c32aa225f197917ff38d02e88f,user336@supersonics.com,538-564-1565,77035,18,3.0,6.0,16,1750.0,7310.0,5105.0,14165,193.0,14358.0,3.5,"['Misc', 'T-shirt']"
1d29f0638f28d0525362e804a53fc6bd9f84b4c36ae1f7ececb00dfbc1a48dcd,user95@supersonics.com,540-630-4107,76426,19,4.0,2.0,14,2930.0,5445.0,2050.0,10425,481.0,10906.0,1.0,"['T-shirt', 'Jersey']"
d40681c65dae52627b07473d0d611f2b2daf113471add122b6b682af805a5944,user431@supersonics.com,540-719-9398,77482,20,1.0,2.0,15,4040.0,1560.0,4575.0,10175,30.0,10205.0,4.5,['Misc']
87b36159e5d97b6b42720a05d94a088331ee34ea77eb2dbbff0252b9fcbb62a3,user132@supersonics.com,543-162-5930,78291,22,2.0,2.0,16,2870.0,2320.0,3860.0,9050,36.0,9086.0,4.0,['Misc']
067f4515f5b0fd2676f234b23fc540e1ef31e68712aa006fa445b1b1f10f49c4,user309@supersonics.com,543-841-3502,72331,22,4.0,4.0,17,3480.0,3000.0,1305.0,7785,731.0,8516.0,3.75,"['Jersey', 'Misc', 'T-shirt']"
ba6eebf9ae5ef8af6daa855669e5bbd495e561874022bd10383dbeb35bcef5dc,user372@supersonics.com,545-648-1620,76834,16,1.0,4.0,12,170.0,805.0,1440.0,2415,448.0,2863.0,2.75,['Jersey']
8b1a35a2505dc18dc7ab38d780bb565cc61fb1d9a0822d074eee45f5e560de75,user48@supersonics.com,545-974-7907,77092,19,1.0,3.0,13,5460.0,1000.0,5070.0,11530,50.0,11580.0,4.0,['T-shirt']
12946bcfc18936b9d6801f4dd54211703aaca98a79bd376c41c2ff65da8a9042,user41@supersonics.com,546-963-3604,76653,20,8.0,4.0,17,3770.0,1625.0,3210.0,8605,687.0,9292.0,2.75,"['Misc', 'Hat', 'T-shirt']"
2bf2b74270b75d08b9217e5fece68c665853fb55a419113795db2a1ddac3c6a6,user51@supersonics.com,548-683-3931,77410,10,3.0,3.0,9,990.0,2785.0,730.0,4505,360.0,4865.0,3.3333333333333335,"['T-shirt', 'Jersey']"
478c08f6a81220f7404c1b2904b86b0374c1331fd721579bf16848a747dd3e10,user103@supersonics.com,548-915-7425,77031,12,5.0,7.0,11,2310.0,2120.0,730.0,5160,502.0,5662.0,3.0,"['Jersey', 'Hat', 'Misc']"
abbe6779564fc9c2de4309993e18627713bc6f3dd7d05ad0aede53226102e293,user100@supersonics.com,550-126-6785,77836,16,5.0,5.0,14,2845.0,820.0,3200.0,6865,718.0,7583.0,3.0,"['Hat', 'Misc', 'Jersey', 'T-shirt']"
0831a1b69d9309bd178f25299ce7589552f02bb306cc3a65a5875d0f06278dc2,user19@supersonics.com,550-592-1109,77073,27,6.0,5.0,19,3235.0,3240.0,5780.0,12255,459.0,12714.0,2.6,"['Misc', 'T-shirt', 'Hat', 'Jersey']"
e26020b43362fc1025c0b59520e1bf04a742dee7063919366ecaef17e9bb7c1c,user134@supersonics.com,554-262-5718,75017,22,7.0,2.0,17,6600.0,3030.0,840.0,10470,1158.0,11628.0,2.0,"['T-shirt', 'Jersey', 'Hat']"
217981a31a5a5072ebbeae28bafa9c1e5bd14a4d56bb25b35051b96fa3f11245,user97@supersonics.com,554-475-5627,77094,25,6.0,2.0,21,1365.0,4710.0,2830.0,8905,833.0,9738.0,2.5,"['Misc', 'Jersey', 'Hat']"
f205f58187b868454de798197f142a851598e3059a20d527f45ac7486006bcbf,user113@supersonics.com,556-166-2235,77083,21,7.0,1.0,16,1255.0,1250.0,3600.0,6105,764.0,6869.0,1.0,"['Misc', 'Hat', 'Jersey', 'T-shirt']"
b218a328e68fbdd261668a1e1a43360655ce1258312e48da08a3d364f7ec1725,user337@supersonics.com,557-906-8786,77083,33,4.0,1.0,23,3455.0,5400.0,6730.0,15585,606.0,16191.0,4.0,"['Misc', 'Jersey', 'Hat']"
2a9c797effb4ca2d5ea391942b14127011c9f1a69da5b8863490f84f1f212ad2,user454@supersonics.com,559-231-2156,75036,25,2.0,5.0,21,2480.0,2035.0,3480.0,7995,56.0,8051.0,3.4,['Hat']
fcac2326652a4eeca1b4c2e6e4d530c6043edd2b7cf7fe5afacb22f355214353,user424@supersonics.com,559-528-4520,76190,31,7.0,3.0,23,4610.0,6945.0,6850.0,18405,457.0,18862.0,3.0,"['Jersey', 'Misc', 'T-shirt', 'Hat']"
c78758376f757ad81122fbe83302b7205e8811cbc60368ebd63cd8abe20a4cd2,user69@supersonics.com,559-973-5169,76657,25,7.0,4.0,19,4365.0,1995.0,6700.0,13060,382.0,13442.0,3.0,"['Misc', 'Hat', 'T-shirt']"
c8f346dcb20ad2a42a5094f65b96c2badb66db8ed2e57d268f35a44c8af3fa1a,user433@supersonics.com,560-905-2448,75554,12,4.0,3.0,11,445.0,2300.0,2400.0,5145,183.0,5328.0,2.0,"['Misc', 'T-shirt', 'Hat']"
cb287f733c068e03d77f9adb1d655c30433af54f967ab5a6990e52a315809ca5,user347@supersonics.com,563-186-1855,77041,18,6.0,3.0,15,2470.0,1170.0,2545.0,6185,769.0,6954.0,3.3333333333333335,"['Misc', 'Jersey', 'Hat']"
83758ff3df75b49e7b1ae80ac58fc003c8eaef5e30d267bf655b6ae1e92bd699,user458@supersonics.com,564-790-3863,77842,20,2.0,4.0,14,3290.0,1475.0,2725.0,7490,262.0,7752.0,4.25,"['T-shirt', 'Jersey']"
f36975d23746ab91e95350a47de89f85b1043f928e09da6e49b917da8ea0e6bd,user151@supersonics.com,564-923-5571,78058,18,2.0,3.0,15,3615.0,3250.0,140.0,7005,210.0,7215.0,2.6666666666666665,"['Jersey', 'T-shirt']"
46af223af6656340a9453d411861f7393cceb331ca40ed694cfa1d511b3363a3,user147@supersonics.com,566-194-2571,77064,24,7.0,6.0,20,960.0,1650.0,10120.0,12730,763.0,13493.0,1.8333333333333333,"['Hat', 'Jersey', 'T-shirt']"
b4112183a46f82ee78b39f653296a9c9d255b0bdd03f30441fb4383a8ae8c164,user206@supersonics.com,569-125-2530,76540,18,6.0,2.0,15,1780.0,3710.0,2795.0,8285,334.0,8619.0,3.0,"['Hat', 'T-shirt', 'Misc']"
34af92f11bce711185978d6035a0bd07bfac6cd5c11c0277c97b43145d214c1e,user67@supersonics.com,569-306-4565,78062,24,3.0,1.0,16,1625.0,5080.0,2200.0,8905,567.0,9472.0,3.0,"['Jersey', 'Hat', 'Misc']"
e7c6c29714b397082ea73d9cf7acfe9c619dd2b2d34140a049c506e8967bba4f,user218@supersonics.com,569-340-4408,76842,21,3.0,2.0,14,6450.0,3020.0,4320.0,13790,204.0,13994.0,2.5,"['Jersey', 'Misc']"
f4b4dc5c62cf67f98d81af090bb1e67bf47711e8f51d1f651a3aeeb3f2228511,user242@supersonics.com,571-220-8576,77074,16,3.0,2.0,12,3520.0,2750.0,660.0,6930,1076.0,8006.0,3.0,"['T-shirt', 'Jersey']"
7640da654ac1c4f93c7c678e6366bc84c9790cda326b380a87942d225cca620b,user125@supersonics.com,571-281-1263,77016,20,3.0,1.0,18,3110.0,4510.0,1510.0,9130,455.0,9585.0,5.0,"['Hat', 'Jersey']"
494bd369c97bc46b3b9fdb3b7b62c77b114b1f23eb950d10f96d608f3fe3ce18,user394@supersonics.com,572-208-2147,77008,15,2.0,2.0,14,1545.0,305.0,2615.0,4465,464.0,4929.0,2.0,"['Jersey', 'Hat']"
d1788582ef53229067120cbaf980f589d2a9f961a93704a2f9cdaffc9878d77e,user266@supersonics.com,573-808-1030,76710,25,3.0,1.0,20,1925.0,3220.0,3020.0,8165,297.0,8462.0,4.0,"['Jersey', 'Hat', 'Misc']"
aac6f942bc50703a16671c525a8c8c15ba8d9e05a126c781f04863ea2af7d7fb,user90@supersonics.com,575-711-4916,49286,17,7.0,1.0,14,3025.0,1905.0,2015.0,6945,1172.0,8117.0,5.0,"['Misc', 'T-shirt', 'Hat', 'Jersey']"
3b37a624930da53c6a88c031f0142f3162f1de3ad6d7ff4ac92f3afff6b813d8,user61@supersonics.com,577-228-4236,77059,20,1.0,5.0,16,2435.0,1590.0,4090.0,8115,150.0,8265.0,2.6,['Hat']
13f308b90bbbbce4e4405c1d3c9a67bd0a3919610419a87b7296f3ccd10be243,user52@supersonics.com,579-304-7241,76715,19,1.0,7.0,16,1065.0,3195.0,3610.0,7870,28.0,7898.0,2.5714285714285716,['T-shirt']
51f18a1009e5963c1a80ee403f8e4cac8f3f6282f80cf85dd89ce66c455fe823,user59@supersonics.com,579-662-3675,76837,16,3.0,2.0,14,3580.0,3435.0,3025.0,10040,572.0,10612.0,4.0,"['Jersey', 'T-shirt']"
022aa3c0df13bc5ca3ec5a70823d62afe23b5e0616f292b61fd12403055edc10,user196@supersonics.com,585-779-4633,77433,26,6.0,6.0,20,2930.0,4370.0,3140.0,10440,614.0,11054.0,2.8333333333333335,"['Hat', 'Misc', 'Jersey', 'T-shirt']"
33b3fe2c66f752880c9b5d26e73a6caebfdad581a8ed00f9309b48bd1616cfe9,user492@supersonics.com,585-912-9278,77388,10,5.0,6.0,8,50.0,3310.0,1950.0,5310,1393.0,6703.0,2.5,"['Jersey', 'Hat']"
3b2fda7277ec316d003420e6b07fcdcaf922087cf673b6ee50d9ffdffad3f5c6,user283@supersonics.com,591-195-3995,75563,27,8.0,1.0,21,7060.0,1210.0,5400.0,13670,635.0,14305.0,5.0,"['Hat', 'Jersey', 'T-shirt', 'Misc']"
ef3966a407235d0a9ba6cd8d3323b719cd0082cbf2d68ccbb1d982992397c835,user27@supersonics.com,592-170-5555,75036,18,5.0,4.0,14,3690.0,3810.0,1050.0,8550,363.0,8913.0,2.75,"['Hat', 'Jersey', 'Misc']"
96080b69d41c4b793677135b32e290cedf74fb813f0c400d9e449b6e60f29c9d,user407@supersonics.com,594-330-9936,77009,19,4.0,5.0,14,2530.0,1815.0,4320.0,8665,382.0,9047.0,2.6,"['Misc', 'Jersey']"
156c854d27ae0b132ecc7ec4ef3f70a06f11fde2ba7036830bf5647476222636,user126@supersonics.com,594-594-6437,78591,11,4.0,4.0,11,1685.0,1760.0,1800.0,5245,677.0,5922.0,3.25,"['Jersey', 'T-shirt']"
142a5cd2a1292a9caec8107460d7d817d10b54f1ed8d2151926560d9b723d170,user34@supersonics.com,594-795-4955,77080,19,2.0,4.0,18,3555.0,2290.0,2885.0,8730,106.0,8836.0,3.25,['Misc']
a99e5475d4f066ca979340c1d1d8a6c51131b8d6719be6bc510017ca4b520eec,user4@supersonics.com,595-266-1942,77006,14,4.0,1.0,11,2400.0,2605.0,3450.0,8455,333.0,8788.0,4.0,"['Hat', 'T-shirt']"
15f0738c9032585fe2e89940ffed87e274f6ab7a4704033bdfbca5cb50c2860c,user437@supersonics.com,595-636-9783,77017,19,3.0,5.0,17,4190.0,2460.0,3910.0,10560,339.0,10899.0,2.8,"['Misc', 'T-shirt', 'Hat']"
94c4282888f0fb423a1178662ea6c7e43cd42a71dbb580b771fd8fa74a040197,user96@supersonics.com,600-540-6873,75210,26,4.0,4.0,21,3680.0,4930.0,1910.0,10520,475.0,10995.0,3.5,"['Jersey', 'T-shirt']"
47995b764f2c55a5d0c1f2c7dbf88de3059cb87b55b0cc62833ff05a7c88c1c6,user58@supersonics.com,601-663-7961,76657,20,3.0,6.0,14,2920.0,4525.0,2840.0,10285,386.0,10671.0,3.6666666666666665,"['Jersey', 'Hat']"
fdb0140c6f79b32409dbc8e4f4fb5d37cfec7bdd01aaa573325eb5f889184f6b,user427@supersonics.com,602-631-9873,77506,20,6.0,4.0,16,3520.0,4560.0,1265.0,9345,405.0,9750.0,4.75,"['T-shirt', 'Hat', 'Misc']"
d63ccf9712dbf337be608c6ac1babcc67121b16831e14c969cddebebbbbb0916,user487@supersonics.com,602-925-5423,77493,17,1.0,2.0,12,3350.0,2450.0,3690.0,9490,348.0,9838.0,2.5,['Jersey']
0f667c4545b7fd271e2c72f82877ef47b181cb6def65569bc7d4091f45854480,user425@supersonics.com,603-720-9977,76653,19,6.0,1.0,17,3960.0,5920.0,2300.0,12180,632.0,12812.0,4.0,"['Jersey', 'Misc', 'T-shirt']"
a9bd8e2c2d326a0773569856938db36074164fe32e3bf9e9dc9f4e80c75d0649,user287@supersonics.com,604-283-7300,76837,21,2.0,1.0,18,1990.0,5430.0,3220.0,10640,74.0,10714.0,5.0,['Misc']
52763e858cd780615e27fd30fd008e6461bd37aef418eefc59eb6741972c09e5,user159@supersonics.com,605-732-9437,77484,16,6.0,6.0,13,3300.0,2065.0,2040.0,7405,717.0,8122.0,3.5,"['T-shirt', 'Misc', 'Jersey', 'Hat']"
b144a02eca06464b098ff4fdbac823f2d163dfb046627953a9a89c310fa0cce2,user105@supersonics.com,607-277-7701,77477,26,7.0,1.0,20,3545.0,3310.0,5820.0,12675,445.0,13120.0,5.0,"['Misc', 'T-shirt', 'Hat']"
6d7cfe59f8a654c5532423b27d760f5525940a019e8fbefb2fa301f09839baec,user164@supersonics.com,608-312-1646,75759,30,0.0,2.0,23,6110.0,1755.0,8030.0,15895,0.0,15895.0,3.5,
08a5659ba5f0a34f96a5d5db7173486bd387d95dc56d03b56367c4756952b549,user175@supersonics.com,608-624-6749,75489,19,4.0,2.0,18,4470.0,1650.0,1990.0,8110,251.0,8361.0,2.5,"['Misc', 'Hat', 'Jersey']"
b5e7fa67b257acb4b7efe66c4e305436d543eaf0e6a01ff32f1d6f78fc1f4fa1,user384@supersonics.com,610-160-7313,75759,22,4.0,3.0,15,4665.0,4750.0,1450.0,10865,402.0,11267.0,3.0,"['Hat', 'Jersey', 'T-shirt', 'Misc']"
4398d792d02f19b6afb0da7b0e5dffd829d5304d0bec00d75b9d0715411d96ba,user286@supersonics.com,614-549-9632,75568,26,5.0,2.0,21,2235.0,6805.0,2675.0,11715,369.0,12084.0,1.5,"['Hat', 'T-shirt', 'Misc']"
a4150b12006f6f3eb7db2db865f32f5fba958af77de1b73fd0a277dfe4ddb805,user118@supersonics.com,615-262-9324,75568,26,3.0,4.0,17,2500.0,4715.0,2950.0,10165,197.0,10362.0,4.5,"['T-shirt', 'Misc']"
217fe3703a78492fdc8c94905e1a3826188a4006ba2045d7c06f8ac6865d4a00,user366@supersonics.com,616-835-9761,78374,17,4.0,5.0,14,765.0,3940.0,3350.0,8055,344.0,8399.0,2.8,"['Jersey', 'Hat', 'T-shirt']"
a02160996e5a7216b1b2207abaa3d428930c2e4e82017987a8f761680329db45,user92@supersonics.com,617-180-9787,77503,20,3.0,3.0,17,4500.0,1435.0,5940.0,11875,302.0,12177.0,1.6666666666666667,"['Jersey', 'Hat', 'T-shirt']"
33b8bfc8bc149b5579b6dcc1ce3e01bfef0e8d94465ce055ee56600bee009c69,user464@supersonics.com,619-364-5526,78163,13,4.0,3.0,12,2980.0,2290.0,2125.0,7395,489.0,7884.0,2.6666666666666665,"['Hat', 'Jersey']"
4b87b6369ca9263224d6c16173af5724b4d52d631f905668efc220c6a6abdbdb,user453@supersonics.com,619-713-6417,77271,25,4.0,3.0,21,4160.0,1940.0,7800.0,13900,515.0,14415.0,2.6666666666666665,"['T-shirt', 'Jersey']"
b0f2dbe8ed445bea2ac9603ecd617ef9d735f8e9b7d278c9c2ac4a42d287aa55,user330@supersonics.com,620-561-5353,78608,21,6.0,4.0,16,2985.0,2750.0,5265.0,11000,600.0,11600.0,3.75,"['Jersey', 'Hat', 'Misc']"
3885888c980ff163936f1f70e7ba6993a81cc99f04b0c6d045c9efd01c18bc37,user285@supersonics.com,620-929-9338,77022,20,3.0,3.0,13,4820.0,1285.0,695.0,6800,527.0,7327.0,3.0,"['Hat', 'Jersey']"
fee7242a502c9949e22ceefda341f8793305298354f40ee190098d53fd8ebef9,user46@supersonics.com,621-290-4093,77373,21,1.0,1.0,16,1350.0,2330.0,3765.0,7445,40.0,7485.0,1.0,['Hat']
10346acc5742aa39ac7b47f15c78e8084d238323499cfee4422cf69bca23033b,user280@supersonics.com,621-421-2306,76564,19,1.0,4.0,17,2905.0,2690.0,5845.0,11440,309.0,11749.0,3.0,['Jersey']
7a19cefb3253200e47f3814a2453af0e8e5977a05ac76ce0e7bdc68f603a44ea,user467@supersonics.com,621-438-3184,77071,24,6.0,3.0,19,2480.0,3210.0,2900.0,8590,518.0,9108.0,4.0,"['T-shirt', 'Jersey', 'Hat']"
f3568547d27ff54db7544e779e92826c0596000719619d8d72cc122296e52fd0,user80@supersonics.com,621-581-6414,76569,19,2.0,3.0,16,1265.0,1460.0,5180.0,7905,555.0,8460.0,3.3333333333333335,['Jersey']
4745ce6838515e519c86ddd267392100f860effc52e1edd497b439ba01af3eba,user14@supersonics.com,621-684-3387,77493,20,2.0,3.0,16,6605.0,2240.0,3550.0,12395,97.0,12492.0,3.3333333333333335,"['Hat', 'T-shirt']"
4af6eed9e781d06f7f9593e58c9d3aa512f39ba64438b4752f22353853905657,user223@supersonics.com,621-940-5798,77077,18,1.0,3.0,16,4090.0,4465.0,1540.0,10095,460.0,10555.0,2.0,['Jersey']
1d3fe08c8257d5c38efce8e386e76307fdf1384b798fb4af6b9929d17916e9c2,user152@supersonics.com,626-297-9797,76472,23,3.0,3.0,17,5395.0,2815.0,2895.0,11105,256.0,11361.0,2.3333333333333335,"['Hat', 'Misc']"
aca2bde4c369be695c57b6cb9c4591c2309ef387239dee4d9fc33c48a6ced488,user348@supersonics.com,627-622-7263,75057,12,8.0,5.0,10,1900.0,1580.0,2930.0,6410,857.0,7267.0,3.6,"['Hat', 'Jersey', 'Misc', 'T-shirt']"
66430828602ccb5adaf6d1a4d6adababc382ed935e6f72858e73c8af93cb9707,user452@supersonics.com,630-538-4400,77497,20,5.0,2.0,18,1370.0,4120.0,5860.0,11350,705.0,12055.0,2.0,"['Jersey', 'Hat', 'Misc', 'T-shirt']"
0ca7a40b5862d5f3512bc4e73eaf42ebf2c9da6e89e5604e8a87b14eb7760329,user435@supersonics.com,633-696-7295,77365,27,3.0,3.0,19,4950.0,3105.0,2495.0,10550,126.0,10676.0,2.3333333333333335,['Misc']
426bd2f0ae0c1d76eb487862d86a3b98f4e4fa200fc3aec7373914a104f4736f,user292@supersonics.com,639-762-6978,76197,23,4.0,1.0,19,3500.0,3455.0,1875.0,8830,381.0,9211.0,5.0,"['T-shirt', 'Jersey']"
0f998f802a944668e4aa24f15ccf7fd41f0dde2d09a36d181ee1d13952e133d5,user72@supersonics.com,639-944-7320,77060,22,5.0,3.0,16,4825.0,3600.0,3140.0,11565,395.0,11960.0,2.3333333333333335,"['T-shirt', 'Hat', 'Jersey']"
ed0d7814f64dd788229aec2ad22a383eadd4046290b82a1d51f6fb809ce3c58e,user490@supersonics.com,640-768-3461,78626,18,4.0,3.0,16,130.0,4275.0,720.0,5125,322.0,5447.0,3.0,"['T-shirt', 'Misc', 'Hat']"
feac8bb224aeaefb7172dd3a80f5d621b03ade9791fae0ab6e6282f02993d084,user238@supersonics.com,643-910-9166,77042,17,4.0,4.0,13,1585.0,2615.0,5180.0,9380,341.0,9721.0,2.5,"['Misc', 'T-shirt', 'Jersey']"
7b21eb1b21f75125db28b1507ef157e6bd4353a072913d4debdd300b401dd01c,user190@supersonics.com,644-438-4893,78054,26,2.0,4.0,20,3035.0,690.0,4310.0,8035,62.0,8097.0,3.25,['Misc']
cc837234debd7d54a9df073e61adaf0452af4839db95104f666a4e8ac7c17828,user74@supersonics.com,644-590-6034,75497,21,2.0,2.0,15,2710.0,4260.0,5725.0,12695,383.0,13078.0,2.0,"['Jersey', 'Hat']"
3d3bfb29fb044f77ab979054c858dbf3fe5009bd614dd0cd99d184b2c7ecf705,user18@supersonics.com,645-680-2091,77012,15,4.0,5.0,12,1800.0,1860.0,1025.0,4685,372.0,5057.0,3.6,"['Jersey', 'Hat', 'Misc']"
c540c76ef39298e20762f80134c53d66183faa819e071053791faca3e00c1aac,user187@supersonics.com,646-685-9094,75151,23,8.0,5.0,17,3130.0,3655.0,7090.0,13875,518.0,14393.0,3.0,"['Hat', 'Misc', 'T-shirt', 'Jersey']"
22d8ec71322d72fd6499b93c39d1371ff8032d4c6b72c6abcd7c0d3ecb58a748,user349@supersonics.com,649-191-1886,77027,19,4.0,4.0,14,3600.0,3905.0,1665.0,9170,1014.0,10184.0,2.5,"['Jersey', 'T-shirt']"
90054fbe394e3592539c468bac35cb71565428ca7b930e4657b4a05b49873585,user351@supersonics.com,649-607-4974,75336,21,3.0,4.0,17,3170.0,2570.0,6795.0,12535,425.0,12960.0,3.25,"['T-shirt', 'Jersey']"
f99ebe00c050f1b78aa7413226ec62cf209acbfffcf21ef880137ed0258732f9,user154@supersonics.com,650-452-5243,75497,17,5.0,1.0,13,3875.0,1120.0,3160.0,8155,626.0,8781.0,3.0,"['Misc', 'T-shirt', 'Jersey']"
8668bd576da2e15afd039c215d86ca7b27efd7858adc1584589e8741ef8f5fa2,user328@supersonics.com,650-596-1445,75448,13,4.0,3.0,11,1480.0,2750.0,1725.0,5955,494.0,6449.0,3.0,"['T-shirt', 'Jersey', 'Hat']"
0a41f3d30728ab652746c145a24972c6bf989ff9489c4a550a43f6a45642871a,user354@supersonics.com,652-254-7793,77003,25,3.0,4.0,21,5055.0,225.0,2065.0,7345,381.0,7726.0,3.25,"['T-shirt', 'Misc', 'Jersey']"
41e5709269f57924728442964dcbae670af5e7d28dc4f434fc550a5010769aa7,user398@supersonics.com,652-624-8907,77006,21,4.0,1.0,15,2065.0,4335.0,4745.0,11145,684.0,11829.0,1.0,"['T-shirt', 'Jersey']"
ab4bad21aa1f87ba8b75c768d43a3cafdd98c26ea51c0f735e2161dfd7d51048,user219@supersonics.com,658-637-6820,75497,17,3.0,6.0,17,2100.0,2160.0,2480.0,6740,163.0,6903.0,4.0,"['Jersey', 'Hat', 'Misc']"
8356ec80f3fc1d4ed24304f846653732eef412dbfaca9f79497f9da2179fab7f,user65@supersonics.com,661-913-2081,77067,13,3.0,2.0,11,180.0,2605.0,2145.0,4930,426.0,5356.0,3.0,"['Hat', 'T-shirt']"
c5a9e689508b7bcbb1c4647a4a52137b4c0d45d474ba373c7e50b4fb170aa51b,user318@supersonics.com,661-944-1479,77587,21,4.0,4.0,17,2220.0,3725.0,4480.0,10425,251.0,10676.0,2.5,"['Jersey', 'Misc']"
72daa4a8cef8f6bbbb0851c7db551afe8ca16c99575ca21c511ee41d93d37190,user227@supersonics.com,662-585-4653,78254,18,5.0,4.0,14,490.0,1155.0,3420.0,5065,741.0,5806.0,3.0,"['Jersey', 'Misc', 'T-shirt', 'Hat']"
7cb4f451e5c04e8bb1b7e37902c359380385ed8094e6e2fcdd34b6c96aafc4a6,user22@supersonics.com,662-679-9225,77066,28,2.0,3.0,22,1620.0,6105.0,5635.0,13360,80.0,13440.0,3.3333333333333335,['Misc']
c7d7c01ec833128db3e1cc39b081e71bc1fb226a57363c51e0832286e96bb1bf,user55@supersonics.com,663-795-4865,77381,19,4.0,6.0,14,2150.0,5260.0,2405.0,9815,1037.0,10852.0,3.3333333333333335,['Jersey']
e1d2bf5008b4d3b4c0cbb8ddce1145cf30992237bef86726cd4ef82bcc22990d,user477@supersonics.com,665-170-3179,77023,16,3.0,3.0,14,3530.0,1960.0,3480.0,8970,210.0,9180.0,2.6666666666666665,"['Hat', 'T-shirt', 'Misc']"
25f944ab42671d8014de76d72426c41526eac857ab04026f980cc90cc11001f6,user251@supersonics.com,666-482-9757,75019,23,5.0,3.0,15,3255.0,6410.0,5210.0,14875,448.0,15323.0,3.0,"['Hat', 'Jersey', 'T-shirt']"
552103653a17af068f63b09f6f3475f1835f9f6e032a5123cfff42d11b95db45,user313@supersonics.com,667-916-2673,75048,25,2.0,4.0,19,4020.0,1485.0,1285.0,6790,138.0,6928.0,4.25,"['T-shirt', 'Hat']"
bc9d32c560ad0c0e97f729c535fec91ad92cea5635e1fa0427a6f4d847a2886d,user42@supersonics.com,669-595-3181,77362,17,4.0,2.0,12,1705.0,2365.0,4905.0,8975,651.0,9626.0,3.5,"['Jersey', 'Misc']"
51ff942ee2e03a51b2e99985ad8eb85bb02f0f6f1cd70b3e5f3485f396d214f9,user276@supersonics.com,672-755-7479,76673,16,3.0,4.0,12,2470.0,3860.0,1510.0,7840,288.0,8128.0,2.5,"['Misc', 'Jersey']"
24d27e8f8f81c9c3327fd0937e40814093c16670daac2acf313376e8ed2fadca,user375@supersonics.com,673-147-6356,78061,27,4.0,2.0,21,4670.0,4450.0,4200.0,13320,278.0,13598.0,2.0,"['Misc', 'T-shirt', 'Jersey']"
9e9b431b0e8eefebd12de187162c0fb254d55f66721d3b090cd8542c727f10f5,user392@supersonics.com,673-655-3115,77551,19,4.0,2.0,17,8985.0,2770.0,1465.0,13220,549.0,13769.0,3.0,"['Jersey', 'Misc', 'T-shirt']"
cb11df685cffe54dbb18a1505855512b8353e4db7dc4773ea9102461d8e23d71,user297@supersonics.com,674-251-1148,75052,20,5.0,3.0,13,2430.0,1150.0,3300.0,6880,364.0,7244.0,2.3333333333333335,"['Hat', 'Misc', 'Jersey']"
0818ec83d310152a24fafddffc44c8db291eb65305eb0abd857326e961b8369a,user295@supersonics.com,674-548-4424,77502,15,2.0,2.0,11,3470.0,380.0,1360.0,5210,209.0,5419.0,4.5,"['Jersey', 'T-shirt']"
931a19d8cfa119e5507ff8705c31aa6c4bddaccebeb31f0a5b55ed3c584bdaee,user130@supersonics.com,676-535-6456,74868,25,3.0,3.0,22,4865.0,3720.0,3450.0,12035,313.0,12348.0,2.6666666666666665,"['T-shirt', 'Jersey', 'Hat']"
f2a7147f88ba80b9657105786ceb9eb0cf83869143c1dae4cc17e86102b4303b,user406@supersonics.com,677-473-6538,77375,21,4.0,2.0,15,1955.0,2010.0,3990.0,7955,313.0,8268.0,3.5,"['Jersey', 'Hat', 'Misc']"
63f438e87961d3d61f493f6fbc61c1baef8cdd41b229ce46bc3285a2583c2c67,user236@supersonics.com,678-690-3420,78140,25,9.0,5.0,20,2575.0,5760.0,3325.0,11660,1265.0,12925.0,2.2,"['Jersey', 'T-shirt', 'Hat']"
7e3087050290df368845cc3aa646fc965096701ce85adada63b83bdf00ee9cb0,user160@supersonics.com,679-634-2819,76710,21,7.0,2.0,14,2295.0,1950.0,6120.0,10365,602.0,10967.0,4.0,"['Misc', 'T-shirt', 'Jersey']"
8443894536d0f3ac9d69f99d90ff9161af004156ef6d8693e53b9fb34d12cf50,user43@supersonics.com,688-426-8097,76649,25,7.0,2.0,20,4410.0,5670.0,390.0,10470,723.0,11193.0,3.0,"['T-shirt', 'Misc', 'Hat', 'Jersey']"
4b6437fb6c2e2506658d0ec16292b4528e024562b8c24982ba4215ae68f7c2e8,user233@supersonics.com,688-462-2834,76657,26,2.0,3.0,19,3795.0,3500.0,4660.0,11955,340.0,12295.0,4.333333333333333,"['Jersey', 'T-shirt']"
da5976486b691b67f8511078b86e2a3835752d5c393221ffc28316ece83c8db9,user82@supersonics.com,688-934-1357,76865,19,5.0,4.0,15,3155.0,3250.0,2120.0,8525,793.0,9318.0,2.5,"['Jersey', 'Hat', 'Misc']"
bb2a54041e3231255532c647fb013d5398e73cfe173326a77bb4f05b1d3b724a,user316@supersonics.com,689-280-7600,76197,22,3.0,1.0,17,1190.0,3860.0,2470.0,7520,391.0,7911.0,5.0,"['Misc', 'Jersey']"
bd61e700f9b1f04750ee15c68a2bee84ba2e85fa2c98e468d67cfb03687741cc,user404@supersonics.com,691-276-7829,77057,19,3.0,2.0,16,1190.0,1495.0,5245.0,7930,292.0,8222.0,3.5,"['Hat', 'T-shirt', 'Jersey']"
23ac370223373925c08dab323e55be0dbc88654edffca0bd94518add25c0dc0f,user133@supersonics.com,691-635-8117,77472,23,4.0,3.0,18,5130.0,3250.0,3150.0,11530,251.0,11781.0,3.6666666666666665,"['Hat', 'Misc']"
05d1954ac3d8c4106d1a82135c787a9c7e89aff74ae8ab2ecb050f889eb9416d,user279@supersonics.com,695-426-2603,76384,21,3.0,3.0,14,3060.0,5595.0,870.0,9525,1024.0,10549.0,4.666666666666667,['Jersey']
efa165fb705a0a0fcf8f9c91fd88a8c89c33e49bd5cb2d38bc3ad97bc3372fc8,user413@supersonics.com,697-176-5783,77384,15,4.0,3.0,14,1230.0,1900.0,2585.0,5715,516.0,6231.0,1.3333333333333333,"['Misc', 'Jersey', 'Hat']"
303755f4c4ef3249094d7803c163ad6ef12bee73a3c5fe72e7a48f72431c6bc8,user237@supersonics.com,702-491-5540,78061,20,3.0,5.0,17,3230.0,3425.0,1520.0,8175,226.0,8401.0,2.8,"['Misc', 'T-shirt']"
2e59a189e9dfbbaeff41cf21357b7da7ffd541304aac802359248ae679584977,user342@supersonics.com,705-179-8425,76865,21,5.0,2.0,18,4225.0,3070.0,1240.0,8535,769.0,9304.0,3.0,"['T-shirt', 'Jersey', 'Hat', 'Misc']"
0799ba2501429fde0cdf3907684b173a4a87ae70ed60264f6652f57e20bc2a5d,user485@supersonics.com,706-322-2785,75778,21,3.0,2.0,16,2740.0,770.0,4935.0,8445,139.0,8584.0,5.0,"['T-shirt', 'Misc', 'Hat']"
2865c9ca5eef9f568ef3f89025ace4b8b522b97120d4be1aeef0d8693e7cdf52,user417@supersonics.com,707-105-6180,76834,16,7.0,4.0,14,1440.0,2700.0,2895.0,7035,861.0,7896.0,3.75,"['T-shirt', 'Hat', 'Misc', 'Jersey']"
51e636ec2151b6a724569cd45826ac3dead040cdcd8d331ad3cde3f13382b8d7,user239@supersonics.com,707-535-4192,78374,17,7.0,1.0,14,505.0,2695.0,3980.0,7180,612.0,7792.0,2.0,"['Misc', 'Hat', 'Jersey']"
3f8c5425c17fdd4fd096f2bea6b2aa7dcd938fe6f2fa09546bba42592b9516c6,user436@supersonics.com,710-378-6730,77506,27,5.0,1.0,20,1205.0,6280.0,4950.0,12435,455.0,12890.0,3.0,"['T-shirt', 'Hat']"
46923e8f76a66e89a9ebd21934af792b17a23586b483756bfd5f539f08175c89,user387@supersonics.com,715-778-7652,75275,18,2.0,1.0,17,4220.0,1710.0,3460.0,9390,90.0,9480.0,4.0,['T-shirt']
2195a228ee60bbe4fa3ca54673dcaa56e567bee1d1c6cc77c09b22345b445e72,user353@supersonics.com,716-338-2197,75448,20,3.0,5.0,16,2900.0,1760.0,925.0,5585,199.0,5784.0,3.4,"['Jersey', 'Misc']"
ebfccd0b00479f8f95d851732406254aabe02e9ee62a9ad353f54f5ccefa45ee,user364@supersonics.com,717-651-4497,75270,18,1.0,1.0,15,1960.0,5450.0,1890.0,9300,42.0,9342.0,3.0,['Misc']
b08f76d4de0382f1e4e9a3b13161be03a65e5b6cc912359f28ee357869fa4cd0,user202@supersonics.com,719-734-8886,77037,19,5.0,3.0,15,1700.0,2825.0,4450.0,8975,593.0,9568.0,2.0,"['Jersey', 'T-shirt', 'Misc']"
40ce1044af4518324b08dafa160362d9e55b06a780fe8b3bdf80d5fcce12a875,user88@supersonics.com,721-684-1994,77382,17,5.0,4.0,14,2135.0,2400.0,1890.0,6425,422.0,6847.0,3.75,"['Hat', 'Misc', 'Jersey']"
544973af062d00271bf61c130b33b30af31d0d76e7a42728c0fabeb922fd1858,user377@supersonics.com,724-307-9182,77001,22,3.0,3.0,17,4640.0,1565.0,4405.0,10610,67.0,10677.0,3.6666666666666665,['Misc']
362412533a0cb0bdff9b7a47f23cdba526211662d446b5e94e04696c4dcbe7fa,user214@supersonics.com,728-114-7314,77447,27,2.0,3.0,23,2245.0,3075.0,5045.0,10365,465.0,10830.0,5.0,"['Hat', 'Jersey']"
8412544c8e7c3c7808e4b374652dc330b8d3681bcf9b1cacda6d5860132649bd,user200@supersonics.com,728-127-6014,75210,14,7.0,5.0,13,4335.0,2040.0,2450.0,8825,1349.0,10174.0,2.6,"['Jersey', 'Misc', 'T-shirt']"
5fde3a76109d09a6430ea5720de67b364f54956a00a041fc7b9dec4832dca460,user93@supersonics.com,728-338-2837,76798,22,3.0,2.0,16,3255.0,6820.0,2830.0,12905,432.0,13337.0,5.0,"['Jersey', 'Hat']"
3bbd628c1898dc70dacd8c9ed3680fb856543d778c0fb1443a227c939bd35dff,user193@supersonics.com,729-169-6535,77406,19,6.0,6.0,16,1045.0,3660.0,3040.0,7745,607.0,8352.0,3.0,"['Jersey', 'Hat', 'Misc']"
c470985b0aaa8ad5be7a939546ee6aaf7a3f0d5e955854a0bdef28634d8d11f1,user241@supersonics.com,729-292-9657,75750,15,3.0,4.0,12,4090.0,100.0,1685.0,5875,272.0,6147.0,3.25,"['T-shirt', 'Misc', 'Hat']"
a183eb6e9233b3b9ae08080f12dcbfbba224aee8d0ac3429f9afbf7b9a7e760a,user486@supersonics.com,729-441-6830,76010,10,3.0,5.0,9,830.0,270.0,1600.0,2700,207.0,2907.0,2.4,"['Misc', 'Jersey', 'T-shirt']"
0354110f5617f24e54446fc7d685a98c5b61da76f721cc64bbec4ab1d61af738,user323@supersonics.com,729-493-1582,42456,26,4.0,3.0,20,4265.0,5600.0,1500.0,11365,821.0,12186.0,3.3333333333333335,"['Hat', 'Jersey']"
689080cc7071e7a2c45b7445852808bde0f2bbcad57e32dfe8c7ee8aa172aac0,user230@supersonics.com,729-877-7463,77026,13,7.0,8.0,12,1995.0,1110.0,1775.0,4880,1080.0,5960.0,3.375,"['Jersey', 'T-shirt', 'Hat', 'Misc']"
9e4c43f9b99497fc134b551699cda314a3ac22cd7653483b3e5fd2a66b1f7c10,user129@supersonics.com,737-873-5833,38587,13,4.0,1.0,12,1260.0,2405.0,1200.0,4865,237.0,5102.0,3.0,"['Misc', 'Jersey', 'T-shirt']"
7537f01922a33276ac44893dff34b24fe5b61aa2f1a8e787dafdd11f98f852ba,user191@supersonics.com,739-851-2053,31555,18,3.0,1.0,14,1530.0,1025.0,3500.0,6055,165.0,6220.0,1.0,"['Misc', 'T-shirt']"
fdcddb16ab20d6d9c1ba0d2280a2718f3c184aa461000374266f65f6469a8965,user60@supersonics.com,740-552-4874,77547,24,1.0,3.0,17,4615.0,5485.0,4535.0,14635,129.0,14764.0,3.3333333333333335,['T-shirt']
5b4173c46d78974cb663c6d7ae76be4a2b889dcf88a876b35eba8690d7d8aee4,user177@supersonics.com,743-284-4353,75007,23,5.0,3.0,16,4920.0,3655.0,4390.0,12965,646.0,13611.0,2.6666666666666665,"['T-shirt', 'Jersey', 'Hat']"
861c0cdef62bf55c9a58044d5f546c95641fc4951e3a185d1280a72b02cc038d,user1@supersonics.com,744-736-6304,77092,20,5.0,1.0,17,1920.0,1630.0,1700.0,5250,291.0,5541.0,1.0,"['T-shirt', 'Misc', 'Hat']"
14b10f1e1fdadae20ef0985f399ccd939d94e5b25af453dc325de8bd2365ce9e,user317@supersonics.com,745-362-7574,77541,14,6.0,4.0,13,900.0,880.0,1475.0,3255,729.0,3984.0,2.75,"['Hat', 'Jersey', 'T-shirt', 'Misc']"
01879112cea3f1b13d8f949a60bf607aa1507a1115fb3a615f25ab67ef892392,user414@supersonics.com,745-651-8727,75028,12,6.0,3.0,11,300.0,515.0,3515.0,4330,464.0,4794.0,2.3333333333333335,"['Misc', 'Jersey', 'Hat', 'T-shirt']"
be74aa20db50e0035fe87173e957dc9249c884bb2110a7be14f3d8a8c1e14b0f,user367@supersonics.com,745-665-4517,77093,19,5.0,2.0,17,3670.0,4420.0,980.0,9070,415.0,9485.0,2.5,"['Hat', 'Jersey', 'Misc']"
56a23736116875379b230b12d90b935f231d7fe7d7f8816b2a29cf44b156fe48,user370@supersonics.com,747-313-1434,76827,18,6.0,1.0,16,4300.0,1775.0,3375.0,9450,736.0,10186.0,4.0,"['Misc', 'Hat', 'Jersey']"
22cb52d98eb3d9f205c15b1ff4a51b56ba85efa1668d337358928cc65b8fff6e,user368@supersonics.com,748-773-9187,25628,13,2.0,3.0,10,880.0,1300.0,1815.0,3995,66.0,4061.0,2.3333333333333335,['Misc']
f4fd178b6d9417ab5bbfba9d3801d1015d76eec0b4b739e4acc267363cea0d89,user306@supersonics.com,748-988-3082,77588,21,3.0,2.0,14,1690.0,2605.0,2315.0,6610,280.0,6890.0,3.0,"['T-shirt', 'Hat']"
01a3230cdc2a71c76ec50d149eef29266ab0036b3cdaadbab1232f4f48fc98d3,user300@supersonics.com,752-467-6744,75165,16,2.0,1.0,15,2390.0,2440.0,2250.0,7080,136.0,7216.0,5.0,"['Misc', 'Jersey']"
2c5beeee7eafcbe71737209edf9922c65d9f33a64bafda1281557a3951ec6a1f,user176@supersonics.com,752-599-6320,78268,21,5.0,5.0,16,5205.0,2500.0,4125.0,11830,295.0,12125.0,3.2,"['T-shirt', 'Hat', 'Misc']"
271f3d71bfc4d039187d247384df767807385ebe72037b2087a3649301f88253,user216@supersonics.com,753-579-3893,77002,16,7.0,2.0,14,2030.0,1760.0,2150.0,5940,1388.0,7328.0,1.5,"['Jersey', 'Misc', 'Hat']"
225498346d3ed721661ad4664dc17f8a8f2b90ed90d75f567492fa3dd12b3d1a,user320@supersonics.com,756-741-7339,75853,27,4.0,5.0,18,3530.0,2810.0,5550.0,11890,586.0,12476.0,2.8,"['Jersey', 'Hat', 'Misc']"
951de19e32fb7bf8504169a79c707708f141a021030d044689caf913b68866dd,user260@supersonics.com,757-901-5980,76649,22,5.0,2.0,18,3240.0,3330.0,4625.0,11195,668.0,11863.0,4.0,"['T-shirt', 'Misc', 'Hat', 'Jersey']"
91a8b8e5519966ce5ec7657a8005b3d209ad751b3fe4c61a6b717a9166b87d69,user444@supersonics.com,758-207-1067,77201,23,4.0,4.0,22,3150.0,2775.0,4910.0,10835,990.0,11825.0,2.0,"['Jersey', 'Misc']"
c167b39722367884f69185e04e22504ebc9a1cd890478b15348074f15bfd369b,user261@supersonics.com,759-492-7993,77459,31,1.0,3.0,21,4315.0,2845.0,6195.0,13355,294.0,13649.0,4.333333333333333,['Jersey']
5d89fe645055005972959e23456a8122ccf0b3e9d097c0bd3691dade0763be3e,user128@supersonics.com,760-786-5163,76673,30,1.0,5.0,20,4150.0,1780.0,5720.0,11650,100.0,11750.0,2.6,['Jersey']
78195f4b4b76ebc2555d6f111e5c4b04015c251ba4a773cb9c35f502028a3054,user108@supersonics.com,761-360-1655,78115,27,5.0,3.0,19,3930.0,5220.0,2295.0,11445,724.0,12169.0,3.3333333333333335,"['T-shirt', 'Jersey', 'Misc']"
24a9c7628fce718c010c94fcf50575971bb2d80eae100d7103def062262e20e9,user439@supersonics.com,767-543-4017,77063,16,2.0,4.0,14,225.0,5430.0,890.0,6545,57.0,6602.0,4.0,"['Misc', 'Hat']"
510807d96d1e0d400038f23b72816dc783056e272d8fd3963999b7d49b977d46,user15@supersonics.com,767-897-2261,99950,13,4.0,1.0,12,3830.0,3200.0,1240.0,8270,1027.0,9297.0,4.0,"['Jersey', 'T-shirt']"
df48cb3189dcd0b4061b70d8bbee71a13ac173826d5a64d27e4e0cfcbdf9d36b,user116@supersonics.com,769-468-7812,75189,14,3.0,3.0,10,3665.0,4190.0,3250.0,11105,384.0,11489.0,4.333333333333333,"['Misc', 'Jersey', 'T-shirt']"
ba9d6659e3d4cb072a0eb759ad0ca8433b67a824c84a14a69e9848fbdd44da6c,user497@supersonics.com,770-668-6368,42456,24,2.0,5.0,16,5720.0,2950.0,2105.0,10775,311.0,11086.0,3.0,"['T-shirt', 'Jersey']"
5f137324c964e723565863abc02004e6f786e4697bb34761a9cbb54eb439d488,user380@supersonics.com,777-227-8629,78123,30,3.0,5.0,21,6295.0,2860.0,5165.0,14320,74.0,14394.0,3.8,"['Misc', 'T-shirt']"
038694fd7c5610b05c84a43690387a7e93933969c0d2edc08d0d71be6dc7208c,user374@supersonics.com,777-830-8009,75554,21,6.0,6.0,16,2385.0,1890.0,4395.0,8670,565.0,9235.0,3.5,"['Misc', 'Jersey', 'Hat', 'T-shirt']"
77d3c3303259500c433dd7da1a4690d053f3d8c2ea610d56e43aff20576e1e53,user488@supersonics.com,780-131-2239,77587,25,7.0,1.0,21,2980.0,3160.0,4415.0,10555,693.0,11248.0,3.0,"['Misc', 'Jersey', 'Hat', 'T-shirt']"
f56bb3c64dc9650827616e5e510f46d8b630b9dc7e08f83c79033f1fec418fd5,user269@supersonics.com,782-412-7390,77362,23,4.0,2.0,16,4770.0,4245.0,3510.0,12525,253.0,12778.0,3.0,"['Misc', 'Hat', 'T-shirt']"
6fd7afa95c310f81f0ca9d4b8af21d149c683809ae6f9c8e4e46527382c73561,user440@supersonics.com,784-343-7015,74868,21,5.0,1.0,17,1880.0,3505.0,2715.0,8100,859.0,8959.0,4.0,"['Misc', 'Jersey', 'T-shirt']"
c06caa7b12ca49ca7ffb503becc36f9bef737d223302f46707f8de85d5afc016,user197@supersonics.com,784-582-5975,78140,20,1.0,6.0,17,1190.0,3405.0,4070.0,8665,117.0,8782.0,2.8333333333333335,['Jersey']
1ccbc7485ed942565a1c9280dde85b9892d47360634fa9cda04677988b21c932,user396@supersonics.com,789-254-6298,78228,22,4.0,5.0,18,3990.0,2610.0,1945.0,8545,325.0,8870.0,4.2,"['Hat', 'T-shirt', 'Jersey']"
f88c871a8d62f879cc7fd8e4ce3d74804c0dbff9f87bdaf7a2aa77e82544f32e,user68@supersonics.com,789-285-9035,75231,19,8.0,3.0,14,5805.0,4520.0,2760.0,13085,1298.0,14383.0,3.0,"['T-shirt', 'Jersey']"
630ffff4e46288fe6bef24add4cee773b8a4095f3e94f256eceb9ef12abda455,user304@supersonics.com,790-443-3850,76564,19,4.0,5.0,16,2605.0,1740.0,5105.0,9450,347.0,9797.0,3.6,"['Misc', 'Jersey', 'T-shirt']"
eca6573b55b41fc2bb475c32575df35478a55541cc5b37531e32ae5ca59db05a,user333@supersonics.com,791-455-9447,78610,23,3.0,3.0,18,4835.0,3900.0,3785.0,12520,216.0,12736.0,2.6666666666666665,"['Misc', 'Hat']"
90a9acadab5d393893805f7f493e22216cc98bf592a309912758fcf2e846a386,user228@supersonics.com,796-357-6893,18818,23,2.0,4.0,18,3390.0,4700.0,1690.0,9780,417.0,10197.0,3.0,"['Misc', 'Jersey']"
bc9c8b1268f62e5ea341cf8bf580f4e25ec9980417e52e75f6be06418cce5253,user449@supersonics.com,796-712-3096,76384,14,5.0,4.0,11,3215.0,3085.0,860.0,7160,577.0,7737.0,3.5,"['Misc', 'T-shirt', 'Hat', 'Jersey']"
a20bad2b715deb55a0d70a6247b14f081d24dd7e0214a871117987956c669f0f,user429@supersonics.com,798-815-6402,77035,20,7.0,2.0,18,3860.0,3505.0,4900.0,12265,845.0,13110.0,2.5,"['Hat', 'Jersey', 'T-shirt', 'Misc']"
7e4f7c73976612655f72f61b7a744b16f5266f22057f27ff5fc10fac06ca7e63,user36@supersonics.com,802-150-5213,75443,21,4.0,1.0,15,3070.0,3195.0,2140.0,8405,568.0,8973.0,3.0,"['T-shirt', 'Jersey', 'Misc']"
944137718736151a1b2a6f6d6939502c6c85bdfe0c0ab3685c610608fd9adab1,user110@supersonics.com,802-628-1079,75065,26,2.0,1.0,21,835.0,8400.0,4880.0,14115,117.0,14232.0,4.0,['Hat']
40b758d570ffdabf47a5e4a598f90e7c2791c61974666a74bb5f10ab1693327a,user326@supersonics.com,803-320-8079,77061,15,8.0,2.0,13,2100.0,2825.0,540.0,5465,908.0,6373.0,3.0,"['Misc', 'T-shirt', 'Hat', 'Jersey']"
45346aac9e72bf08c631b5400942dc19270874ede5d26acc1b2b9e2627da5dc2,user472@supersonics.com,803-733-6051,75559,20,3.0,5.0,17,2005.0,2980.0,1345.0,6330,243.0,6573.0,4.4,"['Misc', 'Hat']"
3644b69c89f0d5d8ca590b6dccf7d66419756b51f24714a7833de43205f78c59,user10@supersonics.com,805-631-6596,66227,18,2.0,3.0,15,500.0,1405.0,3145.0,5050,58.0,5108.0,2.0,"['T-shirt', 'Hat']"
00389afadf389d848adcb4dfea60efaef5214732f412dbe32d52829cd09f91cf,user356@supersonics.com,807-120-9893,77049,17,2.0,2.0,12,1340.0,1930.0,1875.0,5145,182.0,5327.0,3.0,"['Misc', 'T-shirt']"
5b04dc35f98d86945fc8104b63874888d45743800cb4775ba4d4d351c97db2e0,user2@supersonics.com,807-601-7322,76389,15,4.0,7.0,11,1835.0,3850.0,2320.0,8005,552.0,8557.0,3.7142857142857144,"['Misc', 'Jersey', 'T-shirt']"
794f14e75d77cd53458d84e618a374f8763a5af95aa60d595d079c78dc030653,user71@supersonics.com,811-279-7433,77586,18,5.0,1.0,13,1680.0,3790.0,2755.0,8225,446.0,8671.0,3.0,"['T-shirt', 'Jersey', 'Hat', 'Misc']"
9a3828275ff049784203ad896dd373b743b43f03caec6bdee0d5c10ba50a1af8,user445@supersonics.com,813-474-6020,77254,18,6.0,3.0,17,80.0,1850.0,4485.0,6415,405.0,6820.0,4.333333333333333,"['Hat', 'T-shirt', 'Misc', 'Jersey']"
e6a74257284d3a0f6e7739b8349ecd90de8db12fdd88a02d76d0bf8f0438e384,user178@supersonics.com,814-480-6367,77571,25,6.0,2.0,19,3045.0,4245.0,1600.0,8890,602.0,9492.0,3.5,"['Jersey', 'Misc', 'T-shirt', 'Hat']"
3ca5bb4153a44e510eccf01720aef32e7e852220978479101af9d7d2b367b412,user30@supersonics.com,814-884-3630,77076,20,5.0,4.0,14,830.0,1540.0,2825.0,5195,265.0,5460.0,4.5,"['Misc', 'T-shirt']"
6f87c82e192e783ccee2f44cdc52a277b28beb9bdc415a28bfc133100a1b20b9,user235@supersonics.com,817-167-5634,75568,19,3.0,3.0,14,1945.0,6630.0,1080.0,9655,173.0,9828.0,2.3333333333333335,"['Misc', 'T-shirt', 'Hat']"
707847ff843b0a57887e6ad0d0121a03c7be1a89a5f379f01fc832da4fd29194,user381@supersonics.com,817-985-7360,77040,11,2.0,5.0,10,1395.0,2050.0,2100.0,5545,175.0,5720.0,3.4,"['Misc', 'Hat']"
a4a8a24837cdf879c570859ccc5f0c317c4af17e17fdbc0133314c631d1be646,user157@supersonics.com,819-547-4840,75551,30,3.0,3.0,19,5880.0,4530.0,2655.0,13065,419.0,13484.0,4.333333333333333,"['Jersey', 'Misc']"
c153528ddab9c7d42c75a4a9741e51f694fd2eb3aa025fb4e215052328984a75,user102@supersonics.com,820-212-1341,75660,15,5.0,4.0,13,1420.0,2250.0,1350.0,5020,408.0,5428.0,3.0,"['T-shirt', 'Hat', 'Misc']"
226619667dea35e0d84f9d0258716de90317214cde9e449601dbd326db8384f2,user307@supersonics.com,823-165-7939,77381,24,4.0,2.0,21,1615.0,5810.0,5270.0,12695,677.0,13372.0,5.0,"['T-shirt', 'Jersey']"
211cc8fff40362bd484490a916aaa855f39c1b57124ad43f77b95ca58796e561,user243@supersonics.com,823-373-6307,76872,22,4.0,2.0,20,4250.0,810.0,4740.0,9800,476.0,10276.0,1.5,"['Misc', 'Jersey', 'Hat']"
1e9e3f3d0cfde78e5c3f4516b8770a9d4f84bc11ceb61b489390d4314148ed34,user199@supersonics.com,823-698-1708,77386,19,9.0,3.0,16,2075.0,3900.0,3085.0,9060,1104.0,10164.0,3.0,"['Hat', 'Jersey', 'Misc', 'T-shirt']"
0142b3c6dddccb6bf0a8fc1a5012577bca31e8c5e01b3f4038ac6e2050993414,user277@supersonics.com,824-799-3831,77447,16,4.0,4.0,15,3155.0,2670.0,1050.0,6875,312.0,7187.0,3.75,"['Hat', 'Jersey']"
8bf5b4a102b230d218aa1cbc083fb408124bd1d060db809b6143260bdb48127f,user171@supersonics.com,825-937-9718,75685,22,3.0,2.0,16,2625.0,4770.0,2955.0,10350,171.0,10521.0,3.0,['Hat']
629db8412e67f0eb600c06855632db6499b662cac9370bedde2a0d4043976e79,user302@supersonics.com,826-432-3801,75443,26,9.0,4.0,20,6075.0,2610.0,3760.0,12445,1085.0,13530.0,2.25,"['Jersey', 'Hat', 'Misc', 'T-shirt']"
96fd0bacf3cc84fef77c79e1f98cb181ff9ee00673fd2d66b9224ee380876c3d,user83@supersonics.com,827-282-6942,77024,24,3.0,5.0,20,3525.0,5625.0,3025.0,12175,414.0,12589.0,3.4,"['Hat', 'Jersey']"
4d60c4d67799df85b52a9a77ec6c3943c1f53179af3997a25e48706214a5aa80,user338@supersonics.com,829-758-5852,77046,14,2.0,3.0,13,2370.0,1280.0,1155.0,4805,256.0,5061.0,1.6666666666666667,"['Jersey', 'Misc']"
b5637a30e04fbcb6be38309dcffb51ebc259e9e931f3b48d54fec4843724bcca,user339@supersonics.com,831-467-4309,76227,8,7.0,2.0,8,1570.0,20.0,860.0,2450,1426.0,3876.0,3.0,"['Jersey', 'T-shirt', 'Misc']"
94589b128323d9eacf3c48bc21d98c1f465f140cb3aae6ff4a8bcf582309f448,user112@supersonics.com,831-869-6625,75326,18,6.0,3.0,17,800.0,3860.0,645.0,5305,1273.0,6578.0,2.3333333333333335,"['Jersey', 'Misc', 'Hat', 'T-shirt']"
d8b1745fcf19db8135dbce7f83754ecc5f1e169d8045fcc7bb2d6349b9520353,user117@supersonics.com,833-132-5736,77069,13,3.0,3.0,12,2800.0,4310.0,795.0,7905,531.0,8436.0,2.6666666666666665,"['Jersey', 'T-shirt']"
be44c54edb59291d47e16db66bd9a9ac6f752232c394ca63cadda08124dc585d,user224@supersonics.com,835-434-7276,49910,23,3.0,2.0,19,5235.0,1930.0,5260.0,12425,224.0,12649.0,5.0,"['Hat', 'Misc']"
7fc8103caf48ced9b4e9dbd0f3aa16dd0aa97bd1490c8c2c421c9c916e1b0cb4,user350@supersonics.com,835-990-6986,75764,13,1.0,3.0,10,2880.0,815.0,1550.0,5245,110.0,5355.0,3.0,['Hat']
bf498aed87139efcb978bec349c76b0ad2301c190cacf8d0df106f20324a9676,user296@supersonics.com,837-436-3650,77835,21,8.0,3.0,18,2600.0,2290.0,2885.0,7775,520.0,8295.0,2.6666666666666665,"['Misc', 'T-shirt', 'Hat', 'Jersey']"
704664a09d462fb91981ed1a2ea91b66b0b9bebaa0403835a9edbeab3d3a38c0,user63@supersonics.com,838-673-2168,77058,22,6.0,3.0,16,4150.0,4670.0,6400.0,15220,473.0,15693.0,1.6666666666666667,"['Jersey', 'Hat', 'Misc', 'T-shirt']"
229bf248c8bb006521fc6a5c4c25eb461ea7406614bc61072b6ac15758bdc5c0,user222@supersonics.com,840-386-8705,77086,19,3.0,1.0,15,780.0,3200.0,2485.0,6465,67.0,6532.0,4.0,"['Misc', 'T-shirt']"
d851139c280a255f421bdc7dc3387b7501c410daa5379bb5944c824b1dceb5e1,user248@supersonics.com,840-758-8660,77021,22,3.0,2.0,19,3700.0,4490.0,3015.0,11205,240.0,11445.0,3.5,"['Hat', 'T-shirt']"
73ec495ffa75134de1b8483ef13d6710e79582d8baa734425800e1777335fa1e,user245@supersonics.com,842-219-5583,75750,27,7.0,6.0,23,3920.0,1505.0,2430.0,7855,978.0,8833.0,3.1666666666666665,"['Jersey', 'Hat', 'T-shirt', 'Misc']"
65c81537280a6514356be617066c6ff0e37f5bc538a403c0e33ccc64134d96d9,user122@supersonics.com,845-397-6252,77365,20,8.0,2.0,17,620.0,7070.0,5540.0,13230,471.0,13701.0,3.0,"['Hat', 'Jersey', 'T-shirt', 'Misc']"
df1b5e03e028c67334602a48d447b3b8dc468a68a130ddefdccd5312de6d4d6f,user470@supersonics.com,846-855-2354,77014,20,3.0,1.0,14,2070.0,2030.0,4865.0,8965,513.0,9478.0,1.0,"['Misc', 'Jersey']"
c9018a92e98b2ece19ccecc2a71cfa2ab401c819f7f47c91a14a9318bd8a1635,user473@supersonics.com,848-646-3237,18818,8,3.0,2.0,8,2450.0,1000.0,1050.0,4500,438.0,4938.0,5.0,"['Hat', 'Jersey', 'Misc']"
f2a339b51577c49fbf26c82212b5fda7e81a6616c0e24059f09cd46a8536375f,user163@supersonics.com,848-880-7506,75443,21,4.0,1.0,18,3170.0,3520.0,2595.0,9285,242.0,9527.0,5.0,"['Misc', 'Hat', 'Jersey']"
9a08cebb99f1146eec6052f9af9fad122d52af699d120a9542bdec816cbe57f6,user145@supersonics.com,850-386-9578,77870,18,2.0,4.0,17,1785.0,5280.0,2140.0,9205,330.0,9535.0,3.25,['Jersey']
0dd9f61c469be55cad6c61e868b95fc6c96221ac4bf78feb69c51dfa702d6205,user268@supersonics.com,851-767-5941,77055,16,4.0,4.0,14,3670.0,670.0,1935.0,6275,313.0,6588.0,3.5,['Hat']
306ec850ffc9a6e88b160db4683d0bead457c5b883532919bb004059847bde27,user232@supersonics.com,852-914-7921,77063,18,7.0,6.0,15,3150.0,2250.0,4650.0,10050,924.0,10974.0,3.8333333333333335,"['Misc', 'Jersey', 'Hat', 'T-shirt']"
3b7358d6d5d821417240dfa28f9f9ee20760c9e0d44148a5843b2c8be9325c8b,user491@supersonics.com,852-925-7704,77003,17,6.0,4.0,15,3830.0,4760.0,2895.0,11485,982.0,12467.0,1.5,"['Jersey', 'Hat', 'Misc']"
713d358331d90a18eb2d72a8b34ef14324af7b92d2a1454e51bd2c93382c3a17,user225@supersonics.com,853-714-7860,76540,19,2.0,2.0,16,4715.0,1350.0,2010.0,8075,564.0,8639.0,4.0,"['Jersey', 'Hat']"
14e2c8e7098f2d133e840d682d8b3fa5c55ed531a191d33936c7ab9c8833b83b,user479@supersonics.com,854-702-4896,77338,19,3.0,2.0,16,2930.0,1600.0,1870.0,6400,77.0,6477.0,3.0,"['Misc', 'T-shirt']"
223e916d80a3569999b0b1f7633af56ccfb6fafb2910cae21186c86467c7e0fb,user308@supersonics.com,854-931-6412,75710,21,3.0,1.0,15,1320.0,7150.0,3210.0,11680,187.0,11867.0,4.0,"['Hat', 'Jersey']"
140f627b5d922d5285899da589c992cb5d80eaa76524feb1e72ebe0b7c8d68c3,user284@supersonics.com,857-972-6254,77345,30,7.0,1.0,19,5035.0,2630.0,7020.0,14685,546.0,15231.0,2.0,"['T-shirt', 'Hat', 'Jersey']"
b268bb8835b7a880cda3302b7f4be6458b879e3d36fe6d906bb420b5932decc7,user144@supersonics.com,859-181-8104,75555,20,3.0,5.0,17,1225.0,1600.0,5920.0,8745,473.0,9218.0,2.8,"['Jersey', 'T-shirt']"
464e1f882642150ff4efde9669a2e2d7efa66b0eba011d9b53d7ef609ac9e317,user378@supersonics.com,860-517-4828,76837,15,2.0,5.0,12,5350.0,1200.0,1880.0,8430,334.0,8764.0,3.6,"['Jersey', 'T-shirt']"
1dc7cecca9135ca728a59e0e34141ed943830270c323840c162c1c4069341162,user146@supersonics.com,862-357-3734,76853,30,3.0,3.0,22,3870.0,5215.0,2200.0,11285,478.0,11763.0,2.6666666666666665,"['Misc', 'Jersey']"
bcf9d48ab378d64b1246c516e83f0bcce4db5e121c4b48261b459c336732da9b,user411@supersonics.com,863-350-9244,75138,15,5.0,1.0,11,1400.0,1620.0,4005.0,7025,535.0,7560.0,2.0,"['Misc', 'Jersey', 'T-shirt']"
88c25886659d24b1a7b749bbe83f74877f0f63f2977b52b0748f84dd558a9cce,user247@supersonics.com,865-402-8962,76569,25,3.0,1.0,19,5180.0,6520.0,2830.0,14530,215.0,14745.0,3.0,"['Misc', 'Jersey']"
bb49ac6389841c9ff1df8348faf5f75dc10bacab09c67cd3a7ae6a4fe5a10971,user184@supersonics.com,865-670-6615,75138,12,5.0,1.0,12,460.0,1710.0,2045.0,4215,646.0,4861.0,5.0,"['Misc', 'Jersey', 'Hat']"
1819389ce608e075853166c34c268334eaa5ce2a5af6976bf7d95e3cc05b8205,user324@supersonics.com,868-655-9199,77338,22,6.0,5.0,16,2140.0,490.0,1880.0,4510,530.0,5040.0,2.6,"['Misc', 'Hat', 'Jersey', 'T-shirt']"
67d470572ca5985d97c55dd4234458763e9f1b14355443e05efe0d16379f2843,user310@supersonics.com,868-954-3472,77023,23,6.0,5.0,18,3160.0,6505.0,1580.0,11245,965.0,12210.0,3.2,"['T-shirt', 'Misc', 'Jersey']"
b30cb3cfa9a562b4888dc05291b3c71ca27d6dcdde1105952854f76e462a6ad0,user35@supersonics.com,869-480-6500,75146,16,3.0,2.0,13,2200.0,3460.0,2645.0,8305,549.0,8854.0,4.5,"['Jersey', 'Hat']"
15a7c0ca1151269da9f0e6fd0e217cc9bde18daf25fad27652c8f0bc497f71dc,user412@supersonics.com,869-594-9990,77494,20,1.0,5.0,17,3545.0,3175.0,2975.0,9695,162.0,9857.0,4.0,['Jersey']
e25c10c411b4f5502d058f81373be87865a720d8c56a6695fcb5c68c85df2220,user334@supersonics.com,871-526-4107,77093,17,4.0,2.0,15,1600.0,3540.0,2005.0,7145,485.0,7630.0,2.0,"['Hat', 'T-shirt', 'Jersey', 'Misc']"
ff6fda1c1b44a6b09b0901f5b2e9908d6f15e590f08b5eeb56cd4592d50d164e,user148@supersonics.com,875-789-3517,77065,16,6.0,1.0,13,1180.0,4600.0,4685.0,10465,596.0,11061.0,4.0,"['Hat', 'Jersey', 'Misc', 'T-shirt']"
f54afb9a579dcca90a647d74863cc8724385ced08572ec0d6005d300ab754b0e,user179@supersonics.com,879-695-1739,77023,20,2.0,3.0,18,1960.0,1465.0,5350.0,8775,147.0,8922.0,2.0,['T-shirt']
05c0ab898563473dd73a0701ebb8be9adc57b9249304620abd4f209d798ce6ab,user365@supersonics.com,880-159-1763,31555,18,4.0,2.0,16,2115.0,2650.0,1530.0,6295,337.0,6632.0,2.5,"['Hat', 'Misc', 'T-shirt', 'Jersey']"
e8d7aa5488ae972ecefb4233e5ef4dcb084b69fddf600e02bea447ef475d0ebe,user185@supersonics.com,884-924-4272,77507,18,7.0,1.0,15,1250.0,2295.0,1360.0,4905,996.0,5901.0,2.0,"['Hat', 'Jersey', 'T-shirt', 'Misc']"
c8a6a98ef13839aa02933ac65bdf7ac8b839b5bd3d819857f28ebdffb5d4a532,user371@supersonics.com,887-494-8441,77084,19,6.0,1.0,16,5070.0,2650.0,3075.0,10795,263.0,11058.0,2.0,"['Hat', 'Jersey', 'T-shirt', 'Misc']"
18ddb57cba54467c0d61cd716adb16b4c3d515c2999f2a95078f59670c9dd7c3,user438@supersonics.com,888-746-3239,75788,19,8.0,2.0,14,1660.0,2145.0,3130.0,6935,535.0,7470.0,2.5,"['Misc', 'Jersey', 'T-shirt', 'Hat']"
dcf4b1078b7ede7690ec07782f405e65816fe49176cdf82aaa06b2cf58e1cda1,user109@supersonics.com,891-415-5232,77098,24,4.0,8.0,17,4620.0,4165.0,4385.0,13170,212.0,13382.0,2.25,"['Misc', 'T-shirt', 'Jersey']"
d633bcc2a5de20cb07ec9ddb37b5c1060064b727ccdaf5c4a61ea6880f21ba68,user314@supersonics.com,891-467-4105,77870,21,4.0,3.0,19,2410.0,5640.0,700.0,8750,72.0,8822.0,1.6666666666666667,"['Misc', 'Hat']"
5b898025051795d26fe4a8d76e039cebe5d9390fa3a91d466c4d0af0b20d2265,user421@supersonics.com,891-739-1908,75782,16,4.0,2.0,14,1180.0,455.0,1065.0,2700,674.0,3374.0,4.5,"['T-shirt', 'Jersey', 'Hat']"
7605edbee6bb766e42e1682f23b3f9dfacdd88e284b6b720fafbdc3f46d38f97,user89@supersonics.com,892-177-9243,77345,22,6.0,3.0,13,1050.0,3065.0,4835.0,8950,358.0,9308.0,2.6666666666666665,"['Misc', 'T-shirt', 'Hat']"
3d6e2288bc7dfb11bd72d73a66068ed3ad4ecbbc86388230d3457ab89a955493,user120@supersonics.com,892-320-8983,77357,20,3.0,2.0,16,5585.0,530.0,2565.0,8680,433.0,9113.0,2.5,"['T-shirt', 'Jersey', 'Hat']"
e45e0bf588a9c4790c6e78174735f32fbd2cfa0874e772d9054b2036a7bd7e85,user181@supersonics.com,892-346-3553,76649,17,1.0,1.0,13,3025.0,2620.0,4775.0,10420,90.0,10510.0,4.0,['Misc']
f2dcf249fd9aadb2702dc29d3477eba29a7c1658b5e9835ebbbb6e3e242b00bd,user78@supersonics.com,893-707-7445,76642,26,4.0,3.0,21,2610.0,3880.0,4505.0,10995,292.0,11287.0,2.3333333333333335,"['Hat', 'Misc', 'T-shirt']"
9988215d4ca26e076a35eb54be6c363d8a2d5727ddb0c4d8a42b97ca9a8f2647,user484@supersonics.com,893-916-7047,29899,25,4.0,3.0,21,6340.0,3985.0,6880.0,17205,298.0,17503.0,3.3333333333333335,"['T-shirt', 'Misc', 'Hat']"
3ce637e12445185cfc3249083942d8b487bca69a317f12115bae31888810cd35,user111@supersonics.com,894-863-6135,76197,20,6.0,5.0,14,650.0,5725.0,1090.0,7465,891.0,8356.0,2.0,"['Jersey', 'Misc', 'Hat']"
e7763b79ca640cd994ea6106ea4c09f4a63a1923cb1137df1e2e1053b398a3e6,user37@supersonics.com,899-360-8210,77493,20,5.0,5.0,16,3285.0,750.0,3470.0,7505,505.0,8010.0,2.6,"['Misc', 'T-shirt', 'Jersey']"
881004326bd15e0c03700a690a28a9c31ac7868bd53ba8fd8efc9118698bf7df,user169@supersonics.com,900-355-7717,75019,15,2.0,5.0,12,1325.0,2700.0,2795.0,6820,188.0,7008.0,3.6,"['T-shirt', 'Hat']"
f04eadd4543118bfb6ce243e8989e8f5a0ec962543dd5c70860fc2ced70a3323,user77@supersonics.com,900-622-8750,77046,18,4.0,3.0,14,4165.0,3550.0,5750.0,13465,768.0,14233.0,3.3333333333333335,"['Misc', 'Jersey']"
1539840fd87e1173949f6950f7e687533aba6bc2a2574db02be0b1cfa9a46d2e,user461@supersonics.com,223-330-5644,42456,17,3.0,0.0,13,3030.0,490.0,630.0,4150,287.0,4437.0,,"['Misc', 'Hat', 'Jersey']"
64ecd170054e732b432f3def3a89102d2e21ca8986bccc9b8d1462cdf2717e01,user106@supersonics.com,245-436-9526,77578,15,4.0,0.0,11,1710.0,5420.0,1800.0,8930,371.0,9301.0,,"['Misc', 'Jersey', 'Hat']"
e144f7595d886686a7df79d07158649a6004c2c0e562d5743ba4e493fd783f2b,user155@supersonics.com,249-214-5231,77004,17,4.0,0.0,13,860.0,1675.0,2745.0,5280,219.0,5499.0,,"['Hat', 'Jersey']"
384e772e1031221be9f9f7c968fac7f3c11d1151ccb9a6e25edad67cbeb086b4,user212@supersonics.com,301-437-7922,76841,16,3.0,0.0,12,1815.0,1485.0,2750.0,6050,418.0,6468.0,,"['Misc', 'Jersey']"
c9ca95c12be71945a7a9bb9edd1422903b06350a3172e102bf53ca5eeba29d9a,user434@supersonics.com,305-118-6531,78661,28,3.0,0.0,19,4125.0,3680.0,3160.0,10965,372.0,11337.0,,"['Hat', 'T-shirt']"
6a1320edbba993e41288f17ded9869b73804d2976268a88f39d93a84cecede21,user341@supersonics.com,343-142-9373,22643,18,4.0,0.0,14,5130.0,500.0,1775.0,7405,235.0,7640.0,,"['Misc', 'T-shirt']"
e5d741b3648e0d28f2615c7c70107fa3f4dcd70395d24e22e511de54274c8454,user153@supersonics.com,351-151-8407,77055,19,5.0,0.0,17,2150.0,1100.0,4925.0,8175,646.0,8821.0,,"['Jersey', 'T-shirt', 'Misc']"
12c255ec0fed2ee055d3a74191993c8ef7c96884d6153018d0a6dd917ec28bc9,user40@supersonics.com,359-275-6396,77094,19,2.0,0.0,14,2660.0,3385.0,5270.0,11315,292.0,11607.0,,"['Jersey', 'Misc']"
dd4fb01b2b2b0b7f80a464fa89d743d8f218cc0c9af31d2e23bfd3886ca3bdb4,user496@supersonics.com,361-910-9668,77006,15,5.0,0.0,12,4575.0,210.0,2830.0,7615,664.0,8279.0,,"['Jersey', 'Hat', 'Misc']"
a120ca36a359aef881b0fecea4e7cd017dddf1d056314f71a65951efdc3820d7,user13@supersonics.com,397-681-7344,76865,27,3.0,0.0,23,4160.0,3840.0,3470.0,11470,210.0,11680.0,,"['Jersey', 'Hat']"
011065bd7ad12bc05f66030ae11599d6f95447611b69413670ca0999452bdef3,user471@supersonics.com,427-385-6889,78633,18,4.0,0.0,16,4790.0,505.0,3980.0,9275,498.0,9773.0,,"['Jersey', 'Misc', 'T-shirt']"
37c88fdb1fb650a2599a6cdbeb2662298c69fd5777deae23c11b74a0327d22c7,user150@supersonics.com,460-279-4514,78268,21,8.0,0.0,18,5300.0,3780.0,5035.0,14115,403.0,14518.0,,"['T-shirt', 'Hat', 'Misc']"
c183a37d93a0fac359e6cf394d9866ed43efcfd3f011b25bf2c01a1cf0617b81,user47@supersonics.com,495-720-3155,22643,27,9.0,0.0,23,1610.0,3065.0,7475.0,12150,980.0,13130.0,,"['Hat', 'Jersey', 'T-shirt', 'Misc']"
495cb601a81167f2a6b29a4883ae0f52adc6a725ca4ee9f9a1060fcf8c79f83c,user3@supersonics.com,496-665-5890,76690,18,6.0,0.0,16,2850.0,1375.0,1190.0,5415,743.0,6158.0,,"['T-shirt', 'Hat', 'Misc', 'Jersey']"
1df661a3dedc1aa9b536610b50582d73ace2f5fa0b20c76b281185c5bd7eab94,user162@supersonics.com,553-519-7553,75443,16,3.0,0.0,14,3220.0,480.0,2425.0,6125,351.0,6476.0,,"['Misc', 'Jersey', 'T-shirt']"
a89e10c7afd325edf8f426025ec689936fa69658b14af46467a66274f51eb538,user231@supersonics.com,566-346-4625,77492,22,4.0,0.0,18,3320.0,1360.0,3895.0,8575,557.0,9132.0,,"['Jersey', 'Hat', 'T-shirt']"
02b991b770dec3c89cc47b14d709680512d86439f79e62d996f734806fece7cf,user165@supersonics.com,578-427-1291,77030,28,2.0,0.0,21,4435.0,5290.0,3355.0,13080,268.0,13348.0,,"['Hat', 'Jersey']"
d00a1b702f634c0dec43c370aca05d1da6b213229045f0ed83752822955f3ee5,user390@supersonics.com,737-936-9047,77073,22,1.0,0.0,18,6550.0,1425.0,3295.0,11270,342.0,11612.0,,['Jersey']
77a9e8968b8b85de834e4777fff7053ac1000b2ba2f59d398195f2edb309df49,user499@supersonics.com,754-332-1121,77007,26,2.0,0.0,25,4550.0,4165.0,2300.0,11015,196.0,11211.0,,['Hat']
495954c44cdb1bf78eb012770e6c7bf78c4e1e95b29867f42225adbc6f90071f,user357@supersonics.com,770-519-9118,77584,16,2.0,0.0,12,2930.0,780.0,2490.0,6200,378.0,6578.0,,"['Jersey', 'Hat']"
e608bb66889ecb7ed1be24fb61c4e38a7f630a4d57dbc45d33983369f8e5e063,user213@supersonics.com,826-458-9773,76136,27,2.0,0.0,22,3520.0,7805.0,3500.0,14825,74.0,14899.0,,"['T-shirt', 'Misc']"
1022bceaa8e6a0eb6622bfe64e020911fe8265d314f06fce609d1d482fea5831,user135@supersonics.com,830-585-6951,77044,14,5.0,0.0,8,1090.0,2525.0,2940.0,6555,463.0,7018.0,,"['Misc', 'Hat', 'T-shirt', 'Jersey']"
083258a5ce75669042dd63e2e216c14d5336dbb03ebb39dac63f3002b2d32900,user281@supersonics.com,846-788-5127,77510,18,3.0,0.0,14,2600.0,1980.0,650.0,5230,379.0,5609.0,,"['Hat', 'Misc', 'Jersey']"
a3a53ecb57a452eea305c6a915e1aa1ee0e8b596b4473c9d3d05db1e234da0a7,user57@supersonics.com,876-979-5074,77057,21,7.0,0.0,17,2700.0,3285.0,3005.0,8990,476.0,9466.0,,"['Misc', 'T-shirt', 'Jersey']"
